<?xml version="1.0" encoding="UTF-8" standalone="no"?>
<graphml xmlns="http://graphml.graphdrawing.org/xmlns" xmlns:java="http://www.yworks.com/xml/yfiles-common/1.0/java" xmlns:sys="http://www.yworks.com/xml/yfiles-common/markup/primitives/2.0" xmlns:x="http://www.yworks.com/xml/yfiles-common/markup/2.0" xmlns:xsi="http://www.w3.org/2001/XMLSchema-instance" xmlns:y="http://www.yworks.com/xml/graphml" xmlns:yed="http://www.yworks.com/xml/yed/3" xsi:schemaLocation="http://graphml.graphdrawing.org/xmlns http://www.yworks.com/xml/schema/graphml/1.1/ygraphml.xsd">
  <!--Created by yEd 3.20-->
  <key attr.name="Description" attr.type="string" for="graph" id="d0"/>
  <key for="port" id="d1" yfiles.type="portgraphics"/>
  <key for="port" id="d2" yfiles.type="portgeometry"/>
  <key for="port" id="d3" yfiles.type="portuserdata"/>
  <key attr.name="url" attr.type="string" for="node" id="d4"/>
  <key attr.name="description" attr.type="string" for="node" id="d5"/>
  <key for="node" id="d6" yfiles.type="nodegraphics"/>
  <key for="graphml" id="d7" yfiles.type="resources"/>
  <key attr.name="url" attr.type="string" for="edge" id="d8"/>
  <key attr.name="description" attr.type="string" for="edge" id="d9"/>
  <key for="edge" id="d10" yfiles.type="edgegraphics"/>
  <graph edgedefault="directed" id="G">
    <data key="d0" xml:space="preserve"/>
    <node id="n0" yfiles.foldertype="group">
      <data key="d4" xml:space="preserve"/>
      <data key="d6">
        <y:ProxyAutoBoundsNode>
          <y:Realizers active="0">
            <y:GroupNode>
              <y:Geometry height="199.97646484375014" width="336.6328124999993" x="517.1175781250003" y="393.10353515625"/>
              <y:Fill color="#F5F5F5" transparent="false"/>
              <y:BorderStyle color="#C0C0C0" type="dashed" width="1.0"/>
              <y:NodeLabel alignment="right" autoSizePolicy="node_width" backgroundColor="#EBEBEB" borderDistance="0.0" fontFamily="Dialog" fontSize="15" fontStyle="plain" hasLineColor="false" height="22.37646484375" horizontalTextPosition="center" iconTextGap="4" modelName="internal" modelPosition="t" textColor="#000000" verticalTextPosition="bottom" visible="true" width="336.6328124999993" x="0.0" xml:space="preserve" y="0.0">Activity</y:NodeLabel>
              <y:Shape type="roundrectangle"/>
              <y:State closed="false" closedHeight="50.0" closedWidth="50.0" innerGraphDisplayEnabled="false"/>
              <y:Insets bottom="15" bottomF="15.0" left="15" leftF="15.0" right="15" rightF="15.0" top="15" topF="15.0"/>
              <y:BorderInsets bottom="12" bottomF="11.560000000000173" left="0" leftF="0.0" right="18" rightF="18.27039062499921" top="11" topF="11.149023437500091"/>
            </y:GroupNode>
            <y:GroupNode>
              <y:Geometry height="50.0" width="50.0" x="563.0" y="370.62353515625"/>
              <y:Fill color="#F5F5F5" transparent="false"/>
              <y:BorderStyle color="#000000" type="dashed" width="1.0"/>
              <y:NodeLabel alignment="right" autoSizePolicy="node_width" backgroundColor="#EBEBEB" borderDistance="0.0" fontFamily="Dialog" fontSize="15" fontStyle="plain" hasLineColor="false" height="22.37646484375" horizontalTextPosition="center" iconTextGap="4" modelName="internal" modelPosition="t" textColor="#000000" verticalTextPosition="bottom" visible="true" width="59.02685546875" x="-4.513427734375" xml:space="preserve" y="0.0">Folder 1</y:NodeLabel>
              <y:Shape type="roundrectangle"/>
              <y:State closed="true" closedHeight="50.0" closedWidth="50.0" innerGraphDisplayEnabled="false"/>
              <y:Insets bottom="5" bottomF="5.0" left="5" leftF="5.0" right="5" rightF="5.0" top="5" topF="5.0"/>
              <y:BorderInsets bottom="0" bottomF="0.0" left="0" leftF="0.0" right="0" rightF="0.0" top="0" topF="0.0"/>
            </y:GroupNode>
          </y:Realizers>
        </y:ProxyAutoBoundsNode>
      </data>
      <graph edgedefault="directed" id="n0:">
        <node id="n0::n0">
          <data key="d6">
            <y:ShapeNode>
              <y:Geometry height="49.0" width="96.0" x="669.7400000000004" y="517.52"/>
              <y:Fill color="#99CCFF" transparent="false"/>
              <y:BorderStyle color="#000000" raised="false" type="line" width="1.0"/>
              <y:NodeLabel alignment="center" autoSizePolicy="content" fontFamily="Dialog" fontSize="12" fontStyle="plain" hasBackgroundColor="false" hasLineColor="false" height="18.701171875" horizontalTextPosition="center" iconTextGap="4" modelName="custom" textColor="#000000" verticalTextPosition="bottom" visible="true" width="47.34765625" x="24.326171875" xml:space="preserve" y="15.1494140625">Process<y:LabelModel><y:SmartNodeLabelModel distance="4.0"/></y:LabelModel><y:ModelParameter><y:SmartNodeLabelModelParameter labelRatioX="0.0" labelRatioY="0.0" nodeRatioX="0.0" nodeRatioY="0.0" offsetX="0.0" offsetY="0.0" upX="0.0" upY="-1.0"/></y:ModelParameter></y:NodeLabel>
              <y:Shape type="rectangle"/>
            </y:ShapeNode>
          </data>
        </node>
        <node id="n0::n1">
          <data key="d6">
            <y:ShapeNode>
              <y:Geometry height="49.0" width="96.0" x="578.0000000000003" y="443.8800000000001"/>
              <y:Fill color="#C0C0C0" transparent="false"/>
              <y:BorderStyle color="#000000" raised="false" type="line" width="1.0"/>
              <y:NodeLabel alignment="center" autoSizePolicy="content" fontFamily="Dialog" fontSize="12" fontStyle="plain" hasBackgroundColor="false" hasLineColor="false" height="18.701171875" horizontalTextPosition="center" iconTextGap="4" modelName="custom" textColor="#000000" verticalTextPosition="bottom" visible="true" width="77.359375" x="9.3203125" xml:space="preserve" y="15.1494140625">StockProcess<y:LabelModel><y:SmartNodeLabelModel distance="4.0"/></y:LabelModel><y:ModelParameter><y:SmartNodeLabelModelParameter labelRatioX="0.0" labelRatioY="0.0" nodeRatioX="0.0" nodeRatioY="0.0" offsetX="0.0" offsetY="0.0" upX="0.0" upY="-1.0"/></y:ModelParameter></y:NodeLabel>
              <y:Shape type="rectangle"/>
            </y:ShapeNode>
          </data>
        </node>
        <node id="n0::n2">
          <data key="d6">
            <y:ShapeNode>
              <y:Geometry height="49.0" width="59.0" x="761.4800000000004" y="443.8800000000001"/>
              <y:Fill color="#C0C0C0" transparent="false"/>
              <y:BorderStyle color="#000000" raised="false" type="line" width="1.0"/>
              <y:NodeLabel alignment="center" autoSizePolicy="content" fontFamily="Dialog" fontSize="12" fontStyle="plain" hasBackgroundColor="false" hasLineColor="false" height="18.701171875" horizontalTextPosition="center" iconTextGap="4" modelName="custom" textColor="#000000" verticalTextPosition="bottom" visible="true" width="46.029296875" x="6.4853515625" xml:space="preserve" y="15.1494140625">Storage<y:LabelModel><y:SmartNodeLabelModel distance="4.0"/></y:LabelModel><y:ModelParameter><y:SmartNodeLabelModelParameter labelRatioX="0.0" labelRatioY="0.0" nodeRatioX="0.0" nodeRatioY="0.0" offsetX="0.0" offsetY="0.0" upX="0.0" upY="-1.0"/></y:ModelParameter></y:NodeLabel>
              <y:Shape type="rectangle"/>
            </y:ShapeNode>
          </data>
        </node>
        <node id="n0::n3">
          <data key="d6">
            <y:ShapeNode>
              <y:Geometry height="13.0" width="12.800000000000068" x="619.6000000000003" y="517.52"/>
              <y:Fill color="#99CC00" transparent="false"/>
              <y:BorderStyle color="#000000" raised="false" type="line" width="1.0"/>
              <y:NodeLabel alignment="center" autoSizePolicy="content" fontFamily="Dialog" fontSize="10" fontStyle="plain" hasBackgroundColor="false" hasLineColor="false" height="16.2509765625" horizontalTextPosition="center" iconTextGap="4" modelName="sides" modelPosition="w" textColor="#000000" verticalTextPosition="bottom" visible="true" width="83.482421875" x="-87.482421875" xml:space="preserve" y="-1.62548828125">market_discharge</y:NodeLabel>
              <y:Shape type="rectangle"/>
            </y:ShapeNode>
          </data>
        </node>
        <node id="n0::n4">
          <data key="d6">
            <y:ShapeNode>
              <y:Geometry height="13.0" width="12.800000000000068" x="711.3400000000003" y="461.8800000000001"/>
              <y:Fill color="#99CC00" transparent="false"/>
              <y:BorderStyle color="#000000" raised="false" type="line" width="1.0"/>
              <y:NodeLabel alignment="center" autoSizePolicy="content" fontFamily="Dialog" fontSize="10" fontStyle="plain" hasBackgroundColor="false" hasLineColor="false" height="16.2509765625" horizontalTextPosition="center" iconTextGap="4" modelName="sides" modelPosition="n" textColor="#000000" verticalTextPosition="bottom" visible="true" width="70.69921875" x="-28.949609375000023" xml:space="preserve" y="-20.2509765625">market_charge</y:NodeLabel>
              <y:Shape type="rectangle"/>
            </y:ShapeNode>
          </data>
        </node>
      </graph>
    </node>
    <node id="n1">
      <data key="d6">
        <y:ShapeNode>
          <y:Geometry height="13.0" width="12.800000000000068" x="899.1103906249996" y="535.52"/>
          <y:Fill color="#99CC00" transparent="false"/>
          <y:BorderStyle color="#000000" raised="false" type="line" width="1.0"/>
          <y:NodeLabel alignment="center" autoSizePolicy="content" fontFamily="Dialog" fontSize="10" fontStyle="plain" hasBackgroundColor="false" hasLineColor="false" height="16.2509765625" horizontalTextPosition="center" iconTextGap="4" modelName="sides" modelPosition="n" textColor="#000000" verticalTextPosition="bottom" visible="true" width="67.92578125" x="-27.56289062499991" xml:space="preserve" y="-20.2509765625">market_output</y:NodeLabel>
          <y:Shape type="rectangle"/>
        </y:ShapeNode>
      </data>
    </node>
    <node id="n2">
      <data key="d6">
        <y:ShapeNode>
          <y:Geometry height="13.0" width="12.800000000000068" x="471.660781249999" y="461.8800000000001"/>
          <y:Fill color="#99CC00" transparent="false"/>
          <y:BorderStyle color="#000000" raised="false" type="line" width="1.0"/>
          <y:NodeLabel alignment="center" autoSizePolicy="content" fontFamily="Dialog" fontSize="10" fontStyle="plain" hasBackgroundColor="false" hasLineColor="false" height="16.2509765625" horizontalTextPosition="center" iconTextGap="4" modelName="sides" modelPosition="n" textColor="#000000" verticalTextPosition="bottom" visible="true" width="61.8076171875" x="-24.503808593749966" xml:space="preserve" y="-20.2509765625">market_input</y:NodeLabel>
          <y:Shape type="rectangle"/>
        </y:ShapeNode>
      </data>
    </node>
    <node id="n3">
      <data key="d6">
        <y:ShapeNode>
          <y:Geometry height="13.0" width="12.800000000000068" x="471.660781249999" y="544.4"/>
          <y:Fill color="#99CC00" transparent="false"/>
          <y:BorderStyle color="#000000" raised="false" type="line" width="1.0"/>
          <y:NodeLabel alignment="center" autoSizePolicy="content" fontFamily="Dialog" fontSize="10" fontStyle="plain" hasBackgroundColor="false" hasLineColor="false" height="16.2509765625" horizontalTextPosition="center" iconTextGap="4" modelName="sides" modelPosition="n" textColor="#000000" verticalTextPosition="bottom" visible="true" width="61.8076171875" x="-24.503808593749966" xml:space="preserve" y="-20.2509765625">market_input</y:NodeLabel>
          <y:Shape type="rectangle"/>
        </y:ShapeNode>
      </data>
    </node>
    <node id="n4" yfiles.foldertype="group">
      <data key="d4" xml:space="preserve"/>
      <data key="d6">
        <y:ProxyAutoBoundsNode>
          <y:Realizers active="0">
            <y:GroupNode>
              <y:Geometry height="489.3132686941964" width="616.732060518377" x="1214.5688574503727" y="402.94353515625005"/>
              <y:Fill color="#EBEBEB" transparent="false"/>
              <y:BorderStyle color="#99CCFF" type="dashed" width="1.0"/>
              <y:NodeLabel alignment="right" autoSizePolicy="node_width" backgroundColor="#99CCFF" borderDistance="0.0" fontFamily="Dialog" fontSize="15" fontStyle="plain" hasLineColor="false" height="22.37646484375" horizontalTextPosition="center" iconTextGap="4" modelName="internal" modelPosition="t" textColor="#000000" verticalTextPosition="bottom" visible="true" width="616.732060518377" x="0.0" xml:space="preserve" y="0.0">Quartier</y:NodeLabel>
              <y:NodeLabel alignment="center" autoSizePolicy="content" fontFamily="Dialog" fontSize="12" fontStyle="plain" hasBackgroundColor="false" hasLineColor="false" height="18.701171875" horizontalTextPosition="center" iconTextGap="4" modelName="free" modelPosition="anywhere" textColor="#000000" verticalTextPosition="bottom" visible="true" width="20.669921875" x="419.2961816121274" xml:space="preserve" y="367.53087890625">m2</y:NodeLabel>
              <y:Shape type="roundrectangle"/>
              <y:State closed="false" closedHeight="50.0" closedWidth="50.0" innerGraphDisplayEnabled="false"/>
              <y:Insets bottom="15" bottomF="15.0" left="15" leftF="15.0" right="15" rightF="15.0" top="15" topF="15.0"/>
              <y:BorderInsets bottom="9" bottomF="8.807649293685245" left="0" leftF="0.0" right="59" rightF="58.70308588050534" top="2" topF="1.7117675781248636"/>
            </y:GroupNode>
            <y:GroupNode>
              <y:Geometry height="50.0" width="50.0" x="563.0" y="370.62353515625"/>
              <y:Fill color="#F5F5F5" transparent="false"/>
              <y:BorderStyle color="#000000" type="dashed" width="1.0"/>
              <y:NodeLabel alignment="right" autoSizePolicy="node_width" backgroundColor="#EBEBEB" borderDistance="0.0" fontFamily="Dialog" fontSize="15" fontStyle="plain" hasLineColor="false" height="22.37646484375" horizontalTextPosition="center" iconTextGap="4" modelName="internal" modelPosition="t" textColor="#000000" verticalTextPosition="bottom" visible="true" width="59.02685546875" x="-4.513427734375" xml:space="preserve" y="0.0">Folder 1</y:NodeLabel>
              <y:Shape type="roundrectangle"/>
              <y:State closed="true" closedHeight="50.0" closedWidth="50.0" innerGraphDisplayEnabled="false"/>
              <y:Insets bottom="5" bottomF="5.0" left="5" leftF="5.0" right="5" rightF="5.0" top="5" topF="5.0"/>
              <y:BorderInsets bottom="0" bottomF="0.0" left="0" leftF="0.0" right="0" rightF="0.0" top="0" topF="0.0"/>
            </y:GroupNode>
          </y:Realizers>
        </y:ProxyAutoBoundsNode>
      </data>
      <graph edgedefault="directed" id="n4:">
        <node id="n4::n0" yfiles.foldertype="group">
          <data key="d4" xml:space="preserve"/>
          <data key="d6">
            <y:ProxyAutoBoundsNode>
              <y:Realizers active="0">
                <y:GroupNode>
                  <y:Geometry height="127.29646484375007" width="126.0" x="1229.5688574503727" y="442.0317675781249"/>
                  <y:Fill color="#F5F5F5" transparent="false"/>
                  <y:BorderStyle color="#C0C0C0" type="dashed" width="1.0"/>
                  <y:NodeLabel alignment="right" autoSizePolicy="node_width" backgroundColor="#EBEBEB" borderDistance="0.0" fontFamily="Dialog" fontSize="15" fontStyle="plain" hasLineColor="false" height="22.37646484375" horizontalTextPosition="center" iconTextGap="4" modelName="internal" modelPosition="t" textColor="#000000" verticalTextPosition="bottom" visible="true" width="126.0" x="0.0" xml:space="preserve" y="0.0">Construction</y:NodeLabel>
                  <y:Shape type="roundrectangle"/>
                  <y:State closed="false" closedHeight="50.0" closedWidth="50.0" innerGraphDisplayEnabled="false"/>
                  <y:Insets bottom="15" bottomF="15.0" left="15" leftF="15.0" right="15" rightF="15.0" top="15" topF="15.0"/>
                  <y:BorderInsets bottom="13" bottomF="12.519999999999982" left="0" leftF="0.0" right="0" rightF="0.0" top="13" topF="13.400000000000091"/>
                </y:GroupNode>
                <y:GroupNode>
                  <y:Geometry height="50.0" width="50.0" x="563.0" y="370.62353515625"/>
                  <y:Fill color="#F5F5F5" transparent="false"/>
                  <y:BorderStyle color="#000000" type="dashed" width="1.0"/>
                  <y:NodeLabel alignment="right" autoSizePolicy="node_width" backgroundColor="#EBEBEB" borderDistance="0.0" fontFamily="Dialog" fontSize="15" fontStyle="plain" hasLineColor="false" height="22.37646484375" horizontalTextPosition="center" iconTextGap="4" modelName="internal" modelPosition="t" textColor="#000000" verticalTextPosition="bottom" visible="true" width="59.02685546875" x="-4.513427734375" xml:space="preserve" y="0.0">Folder 1</y:NodeLabel>
                  <y:Shape type="roundrectangle"/>
                  <y:State closed="true" closedHeight="50.0" closedWidth="50.0" innerGraphDisplayEnabled="false"/>
                  <y:Insets bottom="5" bottomF="5.0" left="5" leftF="5.0" right="5" rightF="5.0" top="5" topF="5.0"/>
                  <y:BorderInsets bottom="0" bottomF="0.0" left="0" leftF="0.0" right="0" rightF="0.0" top="0" topF="0.0"/>
                </y:GroupNode>
              </y:Realizers>
            </y:ProxyAutoBoundsNode>
          </data>
          <graph edgedefault="directed" id="n4::n0:">
            <node id="n4::n0::n0">
              <data key="d6">
                <y:ShapeNode>
                  <y:Geometry height="49.0" width="96.0" x="1244.5688574503727" y="492.808232421875"/>
                  <y:Fill color="#99CCFF" transparent="false"/>
                  <y:BorderStyle color="#000000" raised="false" type="line" width="1.0"/>
                  <y:NodeLabel alignment="center" autoSizePolicy="content" fontFamily="Dialog" fontSize="12" fontStyle="plain" hasBackgroundColor="false" hasLineColor="false" height="33.40234375" horizontalTextPosition="center" iconTextGap="4" modelName="custom" textColor="#000000" verticalTextPosition="bottom" visible="true" width="71.365234375" x="12.3173828125" xml:space="preserve" y="7.798828125">Process
Construction<y:LabelModel><y:SmartNodeLabelModel distance="4.0"/></y:LabelModel><y:ModelParameter><y:SmartNodeLabelModelParameter labelRatioX="0.0" labelRatioY="0.0" nodeRatioX="0.0" nodeRatioY="0.0" offsetX="0.0" offsetY="0.0" upX="0.0" upY="-1.0"/></y:ModelParameter></y:NodeLabel>
                  <y:Shape type="rectangle"/>
                </y:ShapeNode>
              </data>
            </node>
          </graph>
        </node>
        <node id="n4::n1" yfiles.foldertype="group">
          <data key="d4" xml:space="preserve"/>
          <data key="d6">
            <y:ProxyAutoBoundsNode>
              <y:Realizers active="0">
                <y:GroupNode>
                  <y:Geometry height="199.97646484375014" width="336.6328124999993" x="1420.965019588245" y="442.0317675781249"/>
                  <y:Fill color="#F5F5F5" transparent="false"/>
                  <y:BorderStyle color="#C0C0C0" type="dashed" width="1.0"/>
                  <y:NodeLabel alignment="right" autoSizePolicy="node_width" backgroundColor="#EBEBEB" borderDistance="0.0" fontFamily="Dialog" fontSize="15" fontStyle="plain" hasLineColor="false" height="22.37646484375" horizontalTextPosition="center" iconTextGap="4" modelName="internal" modelPosition="t" textColor="#000000" verticalTextPosition="bottom" visible="true" width="336.6328124999993" x="0.0" xml:space="preserve" y="0.0">Building</y:NodeLabel>
                  <y:Shape type="roundrectangle"/>
                  <y:State closed="false" closedHeight="50.0" closedWidth="50.0" innerGraphDisplayEnabled="false"/>
                  <y:Insets bottom="15" bottomF="15.0" left="15" leftF="15.0" right="15" rightF="15.0" top="15" topF="15.0"/>
                  <y:BorderInsets bottom="12" bottomF="11.560000000000173" left="0" leftF="0.0" right="18" rightF="18.27039062499921" top="11" topF="11.149023437500091"/>
                </y:GroupNode>
                <y:GroupNode>
                  <y:Geometry height="50.0" width="50.0" x="563.0" y="370.62353515625"/>
                  <y:Fill color="#F5F5F5" transparent="false"/>
                  <y:BorderStyle color="#000000" type="dashed" width="1.0"/>
                  <y:NodeLabel alignment="right" autoSizePolicy="node_width" backgroundColor="#EBEBEB" borderDistance="0.0" fontFamily="Dialog" fontSize="15" fontStyle="plain" hasLineColor="false" height="22.37646484375" horizontalTextPosition="center" iconTextGap="4" modelName="internal" modelPosition="t" textColor="#000000" verticalTextPosition="bottom" visible="true" width="59.02685546875" x="-4.513427734375" xml:space="preserve" y="0.0">Folder 1</y:NodeLabel>
                  <y:Shape type="roundrectangle"/>
                  <y:State closed="true" closedHeight="50.0" closedWidth="50.0" innerGraphDisplayEnabled="false"/>
                  <y:Insets bottom="5" bottomF="5.0" left="5" leftF="5.0" right="5" rightF="5.0" top="5" topF="5.0"/>
                  <y:BorderInsets bottom="0" bottomF="0.0" left="0" leftF="0.0" right="0" rightF="0.0" top="0" topF="0.0"/>
                </y:GroupNode>
              </y:Realizers>
            </y:ProxyAutoBoundsNode>
          </data>
          <graph edgedefault="directed" id="n4::n1:">
            <node id="n4::n1::n0">
              <data key="d6">
                <y:ShapeNode>
                  <y:Geometry height="49.0" width="96.0" x="1573.5874414632449" y="566.4482324218749"/>
                  <y:Fill color="#99CCFF" transparent="false"/>
                  <y:BorderStyle color="#000000" raised="false" type="line" width="1.0"/>
                  <y:NodeLabel alignment="center" autoSizePolicy="content" fontFamily="Dialog" fontSize="12" fontStyle="plain" hasBackgroundColor="false" hasLineColor="false" height="18.701171875" horizontalTextPosition="center" iconTextGap="4" modelName="custom" textColor="#000000" verticalTextPosition="bottom" visible="true" width="47.34765625" x="24.326171875" xml:space="preserve" y="15.1494140625">Process<y:LabelModel><y:SmartNodeLabelModel distance="4.0"/></y:LabelModel><y:ModelParameter><y:SmartNodeLabelModelParameter labelRatioX="0.0" labelRatioY="0.0" nodeRatioX="0.0" nodeRatioY="0.0" offsetX="0.0" offsetY="0.0" upX="0.0" upY="-1.0"/></y:ModelParameter></y:NodeLabel>
                  <y:Shape type="rectangle"/>
                </y:ShapeNode>
              </data>
            </node>
            <node id="n4::n1::n1">
              <data key="d6">
                <y:ShapeNode>
                  <y:Geometry height="49.0" width="96.0" x="1481.847441463245" y="492.808232421875"/>
                  <y:Fill color="#C0C0C0" transparent="false"/>
                  <y:BorderStyle color="#000000" raised="false" type="line" width="1.0"/>
                  <y:NodeLabel alignment="center" autoSizePolicy="content" fontFamily="Dialog" fontSize="12" fontStyle="plain" hasBackgroundColor="false" hasLineColor="false" height="18.701171875" horizontalTextPosition="center" iconTextGap="4" modelName="custom" textColor="#000000" verticalTextPosition="bottom" visible="true" width="77.359375" x="9.3203125" xml:space="preserve" y="15.1494140625">StockProcess<y:LabelModel><y:SmartNodeLabelModel distance="4.0"/></y:LabelModel><y:ModelParameter><y:SmartNodeLabelModelParameter labelRatioX="0.0" labelRatioY="0.0" nodeRatioX="0.0" nodeRatioY="0.0" offsetX="0.0" offsetY="0.0" upX="0.0" upY="-1.0"/></y:ModelParameter></y:NodeLabel>
                  <y:Shape type="rectangle"/>
                </y:ShapeNode>
              </data>
            </node>
            <node id="n4::n1::n2">
              <data key="d6">
                <y:ShapeNode>
                  <y:Geometry height="49.0" width="59.0" x="1665.3274414632451" y="492.808232421875"/>
                  <y:Fill color="#C0C0C0" transparent="false"/>
                  <y:BorderStyle color="#000000" raised="false" type="line" width="1.0"/>
                  <y:NodeLabel alignment="center" autoSizePolicy="content" fontFamily="Dialog" fontSize="12" fontStyle="plain" hasBackgroundColor="false" hasLineColor="false" height="18.701171875" horizontalTextPosition="center" iconTextGap="4" modelName="custom" textColor="#000000" verticalTextPosition="bottom" visible="true" width="46.029296875" x="6.4853515625" xml:space="preserve" y="15.1494140625">Storage<y:LabelModel><y:SmartNodeLabelModel distance="4.0"/></y:LabelModel><y:ModelParameter><y:SmartNodeLabelModelParameter labelRatioX="0.0" labelRatioY="0.0" nodeRatioX="0.0" nodeRatioY="0.0" offsetX="0.0" offsetY="0.0" upX="0.0" upY="-1.0"/></y:ModelParameter></y:NodeLabel>
                  <y:Shape type="rectangle"/>
                </y:ShapeNode>
              </data>
            </node>
            <node id="n4::n1::n3">
              <data key="d6">
                <y:ShapeNode>
                  <y:Geometry height="13.0" width="12.800000000000068" x="1523.447441463245" y="566.4482324218749"/>
                  <y:Fill color="#99CC00" transparent="false"/>
                  <y:BorderStyle color="#000000" raised="false" type="line" width="1.0"/>
                  <y:NodeLabel alignment="center" autoSizePolicy="content" fontFamily="Dialog" fontSize="10" fontStyle="plain" hasBackgroundColor="false" hasLineColor="false" height="16.2509765625" horizontalTextPosition="center" iconTextGap="4" modelName="sides" modelPosition="w" textColor="#000000" verticalTextPosition="bottom" visible="true" width="83.482421875" x="-87.482421875" xml:space="preserve" y="-1.62548828125">market_discharge</y:NodeLabel>
                  <y:Shape type="rectangle"/>
                </y:ShapeNode>
              </data>
            </node>
            <node id="n4::n1::n4">
              <data key="d6">
                <y:ShapeNode>
                  <y:Geometry height="13.0" width="12.800000000000068" x="1615.1874414632448" y="510.808232421875"/>
                  <y:Fill color="#99CC00" transparent="false"/>
                  <y:BorderStyle color="#000000" raised="false" type="line" width="1.0"/>
                  <y:NodeLabel alignment="center" autoSizePolicy="content" fontFamily="Dialog" fontSize="10" fontStyle="plain" hasBackgroundColor="false" hasLineColor="false" height="16.2509765625" horizontalTextPosition="center" iconTextGap="4" modelName="sides" modelPosition="n" textColor="#000000" verticalTextPosition="bottom" visible="true" width="70.69921875" x="-28.94960937499991" xml:space="preserve" y="-20.2509765625">market_charge</y:NodeLabel>
                  <y:Shape type="rectangle"/>
                </y:ShapeNode>
              </data>
            </node>
          </graph>
        </node>
        <node id="n4::n2">
          <data key="d6">
            <y:ShapeNode>
              <y:Geometry height="13.0" width="12.800000000000068" x="1534.5978320882443" y="671.9842857142858"/>
              <y:Fill color="#99CC00" transparent="false"/>
              <y:BorderStyle color="#000000" raised="false" type="line" width="1.0"/>
              <y:NodeLabel alignment="center" autoSizePolicy="content" fontFamily="Dialog" fontSize="10" fontStyle="plain" hasBackgroundColor="false" hasLineColor="false" height="16.2509765625" horizontalTextPosition="center" iconTextGap="4" modelName="sides" modelPosition="w" textColor="#000000" verticalTextPosition="bottom" visible="true" width="39.5810546875" x="-43.5810546875" xml:space="preserve" y="-1.62548828125">Building</y:NodeLabel>
              <y:Shape type="rectangle"/>
            </y:ShapeNode>
          </data>
        </node>
        <node id="n4::n3">
          <data key="d6">
            <y:ShapeNode>
              <y:Geometry height="13.0" width="12.800000000000068" x="1381.7369385193088" y="510.808232421875"/>
              <y:Fill color="#99CC00" transparent="false"/>
              <y:BorderStyle color="#000000" raised="false" type="line" width="1.0"/>
              <y:NodeLabel alignment="center" autoSizePolicy="content" fontFamily="Dialog" fontSize="10" fontStyle="plain" hasBackgroundColor="false" hasLineColor="false" height="16.2509765625" horizontalTextPosition="center" iconTextGap="4" modelName="sides" modelPosition="n" textColor="#000000" verticalTextPosition="bottom" visible="true" width="60.1376953125" x="-23.66884765624991" xml:space="preserve" y="-20.2509765625">Construction</y:NodeLabel>
              <y:Shape type="rectangle"/>
            </y:ShapeNode>
          </data>
        </node>
        <node id="n4::n4">
          <data key="d6">
            <y:ShapeNode>
              <y:Geometry height="13.0" width="12.800000000000068" x="1381.7369385193088" y="630.0927092442612"/>
              <y:Fill color="#FF00FF" transparent="false"/>
              <y:BorderStyle color="#000000" raised="false" type="line" width="1.0"/>
              <y:NodeLabel alignment="center" autoSizePolicy="content" fontFamily="Dialog" fontSize="10" fontStyle="plain" hasBackgroundColor="false" hasLineColor="false" height="16.2509765625" horizontalTextPosition="center" iconTextGap="4" modelName="sides" modelPosition="s" textColor="#000000" verticalTextPosition="bottom" visible="true" width="46.783203125" x="-16.99160156249991" xml:space="preserve" y="17.0">Electricity</y:NodeLabel>
              <y:Shape type="rectangle"/>
            </y:ShapeNode>
          </data>
        </node>
        <node id="n4::n5">
          <data key="d6">
            <y:ShapeNode>
              <y:Geometry height="13.0" width="12.800000000000068" x="1381.736938519309" y="830.2479826817612"/>
              <y:Fill color="#FF00FF" transparent="false"/>
              <y:BorderStyle color="#000000" raised="false" type="line" width="1.0"/>
              <y:NodeLabel alignment="center" autoSizePolicy="content" fontFamily="Dialog" fontSize="10" fontStyle="plain" hasBackgroundColor="false" hasLineColor="false" height="16.2509765625" horizontalTextPosition="center" iconTextGap="4" modelName="sides" modelPosition="s" textColor="#000000" verticalTextPosition="bottom" visible="true" width="38.4677734375" x="-12.833886718749909" xml:space="preserve" y="17.0">Heating</y:NodeLabel>
              <y:Shape type="rectangle"/>
            </y:ShapeNode>
          </data>
        </node>
        <node id="n4::n6">
          <data key="d6">
            <y:ShapeNode>
              <y:Geometry height="13.0" width="12.800000000000068" x="1381.7369385193088" y="723.3504869244242"/>
              <y:Fill color="#FF00FF" transparent="false"/>
              <y:BorderStyle color="#000000" raised="false" type="line" width="1.0"/>
              <y:NodeLabel alignment="center" autoSizePolicy="content" fontFamily="Dialog" fontSize="10" fontStyle="plain" hasBackgroundColor="false" hasLineColor="false" height="16.2509765625" horizontalTextPosition="center" iconTextGap="4" modelName="sides" modelPosition="s" textColor="#000000" verticalTextPosition="bottom" visible="true" width="37.9111328125" x="-12.555566406249909" xml:space="preserve" y="17.0">Cooling</y:NodeLabel>
              <y:Shape type="rectangle"/>
            </y:ShapeNode>
          </data>
        </node>
        <node id="n4::n7" yfiles.foldertype="group">
          <data key="d4" xml:space="preserve"/>
          <data key="d6">
            <y:ProxyAutoBoundsNode>
              <y:Realizers active="0">
                <y:GroupNode>
                  <y:Geometry height="85.77880859375" width="99.0" x="1242.0688574503727" y="582.5150725255112"/>
                  <y:Fill color="#F5F5F5" transparent="false"/>
                  <y:BorderStyle color="#C0C0C0" type="dashed" width="1.0"/>
                  <y:NodeLabel alignment="right" autoSizePolicy="node_width" backgroundColor="#EBEBEB" borderDistance="0.0" fontFamily="Dialog" fontSize="15" fontStyle="plain" hasLineColor="false" height="22.37646484375" horizontalTextPosition="center" iconTextGap="4" modelName="internal" modelPosition="t" textColor="#000000" verticalTextPosition="bottom" visible="true" width="99.0" x="0.0" xml:space="preserve" y="0.0">Electricity</y:NodeLabel>
                  <y:Shape type="roundrectangle"/>
                  <y:State closed="false" closedHeight="50.0" closedWidth="50.0" innerGraphDisplayEnabled="false"/>
                  <y:Insets bottom="15" bottomF="15.0" left="15" leftF="15.0" right="15" rightF="15.0" top="15" topF="15.0"/>
                  <y:BorderInsets bottom="0" bottomF="0.0" left="2" leftF="2.0" right="0" rightF="0.0" top="0" topF="0.0"/>
                </y:GroupNode>
                <y:GroupNode>
                  <y:Geometry height="50.0" width="50.0" x="563.0" y="370.62353515625"/>
                  <y:Fill color="#F5F5F5" transparent="false"/>
                  <y:BorderStyle color="#000000" type="dashed" width="1.0"/>
                  <y:NodeLabel alignment="right" autoSizePolicy="node_width" backgroundColor="#EBEBEB" borderDistance="0.0" fontFamily="Dialog" fontSize="15" fontStyle="plain" hasLineColor="false" height="22.37646484375" horizontalTextPosition="center" iconTextGap="4" modelName="internal" modelPosition="t" textColor="#000000" verticalTextPosition="bottom" visible="true" width="59.02685546875" x="-4.513427734375" xml:space="preserve" y="0.0">Folder 1</y:NodeLabel>
                  <y:Shape type="roundrectangle"/>
                  <y:State closed="true" closedHeight="50.0" closedWidth="50.0" innerGraphDisplayEnabled="false"/>
                  <y:Insets bottom="5" bottomF="5.0" left="5" leftF="5.0" right="5" rightF="5.0" top="5" topF="5.0"/>
                  <y:BorderInsets bottom="0" bottomF="0.0" left="0" leftF="0.0" right="0" rightF="0.0" top="0" topF="0.0"/>
                </y:GroupNode>
              </y:Realizers>
            </y:ProxyAutoBoundsNode>
          </data>
          <graph edgedefault="directed" id="n4::n7:">
            <node id="n4::n7::n0">
              <data key="d6">
                <y:ShapeNode>
                  <y:Geometry height="32.0" width="67.0" x="1259.0688574503727" y="620.5927092442612"/>
                  <y:Fill color="#99CCFF" transparent="false"/>
                  <y:BorderStyle color="#000000" raised="false" type="line" width="1.0"/>
                  <y:NodeLabel alignment="center" autoSizePolicy="content" fontFamily="Dialog" fontSize="12" fontStyle="plain" hasBackgroundColor="false" hasLineColor="false" height="33.40234375" horizontalTextPosition="center" iconTextGap="4" modelName="custom" textColor="#000000" verticalTextPosition="bottom" visible="true" width="61.369140625" x="2.8154296875" xml:space="preserve" y="-0.701171875">Process
Production<y:LabelModel><y:SmartNodeLabelModel distance="4.0"/></y:LabelModel><y:ModelParameter><y:SmartNodeLabelModelParameter labelRatioX="0.0" labelRatioY="0.0" nodeRatioX="0.0" nodeRatioY="0.0" offsetX="0.0" offsetY="0.0" upX="0.0" upY="-1.0"/></y:ModelParameter></y:NodeLabel>
                  <y:Shape type="rectangle"/>
                </y:ShapeNode>
              </data>
            </node>
          </graph>
        </node>
        <node id="n4::n8" yfiles.foldertype="group">
          <data key="d4" xml:space="preserve"/>
          <data key="d6">
            <y:ProxyAutoBoundsNode>
              <y:Realizers active="0">
                <y:GroupNode>
                  <y:Geometry height="85.77880859375" width="97.0" x="1242.0688574503727" y="682.5927092442612"/>
                  <y:Fill color="#F5F5F5" transparent="false"/>
                  <y:BorderStyle color="#C0C0C0" type="dashed" width="1.0"/>
                  <y:NodeLabel alignment="right" autoSizePolicy="node_width" backgroundColor="#EBEBEB" borderDistance="0.0" fontFamily="Dialog" fontSize="15" fontStyle="plain" hasLineColor="false" height="22.37646484375" horizontalTextPosition="center" iconTextGap="4" modelName="internal" modelPosition="t" textColor="#000000" verticalTextPosition="bottom" visible="true" width="97.0" x="0.0" xml:space="preserve" y="0.0">Cooling</y:NodeLabel>
                  <y:Shape type="roundrectangle"/>
                  <y:State closed="false" closedHeight="50.0" closedWidth="50.0" innerGraphDisplayEnabled="false"/>
                  <y:Insets bottom="15" bottomF="15.0" left="15" leftF="15.0" right="15" rightF="15.0" top="15" topF="15.0"/>
                  <y:BorderInsets bottom="0" bottomF="0.0" left="0" leftF="0.0" right="0" rightF="0.0" top="0" topF="0.0"/>
                </y:GroupNode>
                <y:GroupNode>
                  <y:Geometry height="50.0" width="50.0" x="563.0" y="370.62353515625"/>
                  <y:Fill color="#F5F5F5" transparent="false"/>
                  <y:BorderStyle color="#000000" type="dashed" width="1.0"/>
                  <y:NodeLabel alignment="right" autoSizePolicy="node_width" backgroundColor="#EBEBEB" borderDistance="0.0" fontFamily="Dialog" fontSize="15" fontStyle="plain" hasLineColor="false" height="22.37646484375" horizontalTextPosition="center" iconTextGap="4" modelName="internal" modelPosition="t" textColor="#000000" verticalTextPosition="bottom" visible="true" width="59.02685546875" x="-4.513427734375" xml:space="preserve" y="0.0">Folder 1</y:NodeLabel>
                  <y:Shape type="roundrectangle"/>
                  <y:State closed="true" closedHeight="50.0" closedWidth="50.0" innerGraphDisplayEnabled="false"/>
                  <y:Insets bottom="5" bottomF="5.0" left="5" leftF="5.0" right="5" rightF="5.0" top="5" topF="5.0"/>
                  <y:BorderInsets bottom="0" bottomF="0.0" left="0" leftF="0.0" right="0" rightF="0.0" top="0" topF="0.0"/>
                </y:GroupNode>
              </y:Realizers>
            </y:ProxyAutoBoundsNode>
          </data>
          <graph edgedefault="directed" id="n4::n8:">
            <node id="n4::n8::n0">
              <data key="d6">
                <y:ShapeNode>
                  <y:Geometry height="32.0" width="67.0" x="1257.0688574503727" y="720.6703459630112"/>
                  <y:Fill color="#99CCFF" transparent="false"/>
                  <y:BorderStyle color="#000000" raised="false" type="line" width="1.0"/>
                  <y:NodeLabel alignment="center" autoSizePolicy="content" fontFamily="Dialog" fontSize="12" fontStyle="plain" hasBackgroundColor="false" hasLineColor="false" height="33.40234375" horizontalTextPosition="center" iconTextGap="4" modelName="custom" textColor="#000000" verticalTextPosition="bottom" visible="true" width="61.369140625" x="2.8154296875" xml:space="preserve" y="-0.701171875">Process
Production<y:LabelModel><y:SmartNodeLabelModel distance="4.0"/></y:LabelModel><y:ModelParameter><y:SmartNodeLabelModelParameter labelRatioX="0.0" labelRatioY="0.0" nodeRatioX="0.0" nodeRatioY="0.0" offsetX="0.0" offsetY="0.0" upX="0.0" upY="-1.0"/></y:ModelParameter></y:NodeLabel>
                  <y:Shape type="rectangle"/>
                </y:ShapeNode>
              </data>
            </node>
          </graph>
        </node>
        <node id="n4::n9" yfiles.foldertype="group">
          <data key="d4" xml:space="preserve"/>
          <data key="d6">
            <y:ProxyAutoBoundsNode>
              <y:Realizers active="0">
                <y:GroupNode>
                  <y:Geometry height="85.77880859375" width="97.0" x="1242.0688574503727" y="782.6703459630112"/>
                  <y:Fill color="#F5F5F5" transparent="false"/>
                  <y:BorderStyle color="#C0C0C0" type="dashed" width="1.0"/>
                  <y:NodeLabel alignment="right" autoSizePolicy="node_width" backgroundColor="#EBEBEB" borderDistance="0.0" fontFamily="Dialog" fontSize="15" fontStyle="plain" hasLineColor="false" height="22.37646484375" horizontalTextPosition="center" iconTextGap="4" modelName="internal" modelPosition="t" textColor="#000000" verticalTextPosition="bottom" visible="true" width="97.0" x="0.0" xml:space="preserve" y="0.0">Heating</y:NodeLabel>
                  <y:Shape type="roundrectangle"/>
                  <y:State closed="false" closedHeight="50.0" closedWidth="50.0" innerGraphDisplayEnabled="false"/>
                  <y:Insets bottom="15" bottomF="15.0" left="15" leftF="15.0" right="15" rightF="15.0" top="15" topF="15.0"/>
                  <y:BorderInsets bottom="0" bottomF="0.0" left="0" leftF="0.0" right="0" rightF="0.0" top="0" topF="0.0"/>
                </y:GroupNode>
                <y:GroupNode>
                  <y:Geometry height="50.0" width="50.0" x="563.0" y="370.62353515625"/>
                  <y:Fill color="#F5F5F5" transparent="false"/>
                  <y:BorderStyle color="#000000" type="dashed" width="1.0"/>
                  <y:NodeLabel alignment="right" autoSizePolicy="node_width" backgroundColor="#EBEBEB" borderDistance="0.0" fontFamily="Dialog" fontSize="15" fontStyle="plain" hasLineColor="false" height="22.37646484375" horizontalTextPosition="center" iconTextGap="4" modelName="internal" modelPosition="t" textColor="#000000" verticalTextPosition="bottom" visible="true" width="59.02685546875" x="-4.513427734375" xml:space="preserve" y="0.0">Folder 1</y:NodeLabel>
                  <y:Shape type="roundrectangle"/>
                  <y:State closed="true" closedHeight="50.0" closedWidth="50.0" innerGraphDisplayEnabled="false"/>
                  <y:Insets bottom="5" bottomF="5.0" left="5" leftF="5.0" right="5" rightF="5.0" top="5" topF="5.0"/>
                  <y:BorderInsets bottom="0" bottomF="0.0" left="0" leftF="0.0" right="0" rightF="0.0" top="0" topF="0.0"/>
                </y:GroupNode>
              </y:Realizers>
            </y:ProxyAutoBoundsNode>
          </data>
          <graph edgedefault="directed" id="n4::n9:">
            <node id="n4::n9::n0">
              <data key="d6">
                <y:ShapeNode>
                  <y:Geometry height="32.0" width="67.0" x="1257.0688574503727" y="820.7479826817612"/>
                  <y:Fill color="#99CCFF" transparent="false"/>
                  <y:BorderStyle color="#000000" raised="false" type="line" width="1.0"/>
                  <y:NodeLabel alignment="center" autoSizePolicy="content" fontFamily="Dialog" fontSize="12" fontStyle="plain" hasBackgroundColor="false" hasLineColor="false" height="33.40234375" horizontalTextPosition="center" iconTextGap="4" modelName="custom" textColor="#000000" verticalTextPosition="bottom" visible="true" width="61.369140625" x="2.8154296875" xml:space="preserve" y="-0.701171875">Process
Production<y:LabelModel><y:SmartNodeLabelModel distance="4.0"/></y:LabelModel><y:ModelParameter><y:SmartNodeLabelModelParameter labelRatioX="0.0" labelRatioY="0.0" nodeRatioX="0.0" nodeRatioY="0.0" offsetX="0.0" offsetY="0.0" upX="0.0" upY="-1.0"/></y:ModelParameter></y:NodeLabel>
                  <y:Shape type="rectangle"/>
                </y:ShapeNode>
              </data>
            </node>
          </graph>
        </node>
        <node id="n4::n10" yfiles.foldertype="group">
          <data key="d4" xml:space="preserve"/>
          <data key="d6">
            <y:ProxyAutoBoundsNode>
              <y:Realizers active="0">
                <y:GroupNode>
                  <y:Geometry height="109.41646484374996" width="152.01858401287222" x="1476.447441463245" y="714.9603390066964"/>
                  <y:Fill color="#F5F5F5" transparent="false"/>
                  <y:BorderStyle color="#C0C0C0" type="dashed" width="1.0"/>
                  <y:NodeLabel alignment="right" autoSizePolicy="node_width" backgroundColor="#EBEBEB" borderDistance="0.0" fontFamily="Dialog" fontSize="15" fontStyle="plain" hasLineColor="false" height="22.37646484375" horizontalTextPosition="center" iconTextGap="4" modelName="internal" modelPosition="t" textColor="#000000" verticalTextPosition="bottom" visible="true" width="152.01858401287222" x="0.0" xml:space="preserve" y="0.0">Building A</y:NodeLabel>
                  <y:Shape type="roundrectangle"/>
                  <y:State closed="false" closedHeight="50.0" closedWidth="50.0" innerGraphDisplayEnabled="false"/>
                  <y:Insets bottom="15" bottomF="15.0" left="15" leftF="15.0" right="15" rightF="15.0" top="15" topF="15.0"/>
                  <y:BorderInsets bottom="0" bottomF="0.0" left="26" leftF="26.018584012872225" right="0" rightF="0.0" top="8" topF="8.039999999999964"/>
                </y:GroupNode>
                <y:GroupNode>
                  <y:Geometry height="50.0" width="50.0" x="563.0" y="370.62353515625"/>
                  <y:Fill color="#F5F5F5" transparent="false"/>
                  <y:BorderStyle color="#000000" type="dashed" width="1.0"/>
                  <y:NodeLabel alignment="right" autoSizePolicy="node_width" backgroundColor="#EBEBEB" borderDistance="0.0" fontFamily="Dialog" fontSize="15" fontStyle="plain" hasLineColor="false" height="22.37646484375" horizontalTextPosition="center" iconTextGap="4" modelName="internal" modelPosition="t" textColor="#000000" verticalTextPosition="bottom" visible="true" width="59.02685546875" x="-4.513427734375" xml:space="preserve" y="0.0">Folder 1</y:NodeLabel>
                  <y:Shape type="roundrectangle"/>
                  <y:State closed="true" closedHeight="50.0" closedWidth="50.0" innerGraphDisplayEnabled="false"/>
                  <y:Insets bottom="5" bottomF="5.0" left="5" leftF="5.0" right="5" rightF="5.0" top="5" topF="5.0"/>
                  <y:BorderInsets bottom="0" bottomF="0.0" left="0" leftF="0.0" right="0" rightF="0.0" top="0" topF="0.0"/>
                </y:GroupNode>
              </y:Realizers>
            </y:ProxyAutoBoundsNode>
          </data>
          <graph edgedefault="directed" id="n4::n10:">
            <node id="n4::n10::n0">
              <data key="d6">
                <y:ShapeNode>
                  <y:Geometry height="49.0" width="96.0" x="1517.4660254761172" y="760.3768038504463"/>
                  <y:Fill color="#99CCFF" transparent="false"/>
                  <y:BorderStyle color="#000000" raised="false" type="line" width="1.0"/>
                  <y:NodeLabel alignment="center" autoSizePolicy="content" fontFamily="Dialog" fontSize="12" fontStyle="plain" hasBackgroundColor="false" hasLineColor="false" height="18.701171875" horizontalTextPosition="center" iconTextGap="4" modelName="custom" textColor="#000000" verticalTextPosition="bottom" visible="true" width="47.34765625" x="24.326171875" xml:space="preserve" y="15.1494140625">Process<y:LabelModel><y:SmartNodeLabelModel distance="4.0"/></y:LabelModel><y:ModelParameter><y:SmartNodeLabelModelParameter labelRatioX="0.0" labelRatioY="0.0" nodeRatioX="0.0" nodeRatioY="0.0" offsetX="0.0" offsetY="0.0" upX="0.0" upY="-1.0"/></y:ModelParameter></y:NodeLabel>
                  <y:Shape type="rectangle"/>
                </y:ShapeNode>
              </data>
            </node>
          </graph>
        </node>
        <node id="n4::n11">
          <data key="d6">
            <y:ShapeNode>
              <y:Geometry height="13.0" width="12.800000000000068" x="1674.5978320882443" y="778.3768038504463"/>
              <y:Fill color="#99CC00" transparent="false"/>
              <y:BorderStyle color="#000000" raised="false" type="line" width="1.0"/>
              <y:NodeLabel alignment="center" autoSizePolicy="content" fontFamily="Dialog" fontSize="10" fontStyle="plain" hasBackgroundColor="false" hasLineColor="false" height="28.501953125" horizontalTextPosition="center" iconTextGap="4" modelName="sides" modelPosition="n" textColor="#000000" verticalTextPosition="bottom" visible="true" width="39.5810546875" x="-13.390527343749909" xml:space="preserve" y="-32.501953125">Building
A</y:NodeLabel>
              <y:Shape type="rectangle"/>
            </y:ShapeNode>
          </data>
        </node>
      </graph>
    </node>
    <node id="n5" yfiles.foldertype="group">
      <data key="d4" xml:space="preserve"/>
      <data key="d6">
        <y:ProxyAutoBoundsNode>
          <y:Realizers active="0">
            <y:GroupNode>
              <y:Geometry height="259.1491740880111" width="142.79013802834743" x="1058.2769810267855" y="402.9435351562501"/>
              <y:Fill color="#EBEBEB" transparent="false"/>
              <y:BorderStyle color="#99CCFF" type="dashed" width="1.0"/>
              <y:NodeLabel alignment="right" autoSizePolicy="node_width" backgroundColor="#99CCFF" borderDistance="0.0" fontFamily="Dialog" fontSize="15" fontStyle="plain" hasLineColor="false" height="22.37646484375" horizontalTextPosition="center" iconTextGap="4" modelName="internal" modelPosition="t" textColor="#000000" verticalTextPosition="bottom" visible="true" width="142.79013802834743" x="0.0" xml:space="preserve" y="0.0">Biosphère</y:NodeLabel>
              <y:Shape type="roundrectangle"/>
              <y:State closed="false" closedHeight="50.0" closedWidth="50.0" innerGraphDisplayEnabled="false"/>
              <y:Insets bottom="15" bottomF="15.0" left="15" leftF="15.0" right="15" rightF="15.0" top="15" topF="15.0"/>
              <y:BorderInsets bottom="123" bottomF="123.28447682238618" left="35" leftF="35.13004048608673" right="20" rightF="19.7587303547607" top="50" topF="50.2372558593749"/>
            </y:GroupNode>
            <y:GroupNode>
              <y:Geometry height="50.0" width="50.0" x="563.0" y="370.62353515625"/>
              <y:Fill color="#F5F5F5" transparent="false"/>
              <y:BorderStyle color="#000000" type="dashed" width="1.0"/>
              <y:NodeLabel alignment="right" autoSizePolicy="node_width" backgroundColor="#EBEBEB" borderDistance="0.0" fontFamily="Dialog" fontSize="15" fontStyle="plain" hasLineColor="false" height="22.37646484375" horizontalTextPosition="center" iconTextGap="4" modelName="internal" modelPosition="t" textColor="#000000" verticalTextPosition="bottom" visible="true" width="59.02685546875" x="-4.513427734375" xml:space="preserve" y="0.0">Folder 1</y:NodeLabel>
              <y:Shape type="roundrectangle"/>
              <y:State closed="true" closedHeight="50.0" closedWidth="50.0" innerGraphDisplayEnabled="false"/>
              <y:Insets bottom="5" bottomF="5.0" left="5" leftF="5.0" right="5" rightF="5.0" top="5" topF="5.0"/>
              <y:BorderInsets bottom="0" bottomF="0.0" left="0" leftF="0.0" right="0" rightF="0.0" top="0" topF="0.0"/>
            </y:GroupNode>
          </y:Realizers>
        </y:ProxyAutoBoundsNode>
      </data>
      <graph edgedefault="directed" id="n5:">
        <node id="n5::n0">
          <data key="d6">
            <y:ShapeNode>
              <y:Geometry height="13.0" width="12.800000000000068" x="1130.9577051066221" y="510.808232421875"/>
              <y:Fill color="#FF00FF" transparent="false"/>
              <y:BorderStyle color="#000000" raised="false" type="line" width="1.0"/>
              <y:NodeLabel alignment="center" autoSizePolicy="content" fontFamily="Dialog" fontSize="10" fontStyle="plain" hasBackgroundColor="false" hasLineColor="false" height="16.2509765625" horizontalTextPosition="center" iconTextGap="4" modelName="sides" modelPosition="n" textColor="#000000" verticalTextPosition="bottom" visible="true" width="57.9013671875" x="-22.55068359374991" xml:space="preserve" y="-20.2509765625">Market CO2</y:NodeLabel>
              <y:Shape type="rectangle"/>
            </y:ShapeNode>
          </data>
        </node>
      </graph>
    </node>
    <edge id="n0::e0" source="n0::n1" target="n0::n3">
      <data key="d10">
        <y:PolyLineEdge>
          <y:Path sx="0.0" sy="0.0" tx="0.0" ty="0.0"/>
          <y:LineStyle color="#000000" type="line" width="1.0"/>
          <y:Arrows source="none" target="standard"/>
          <y:BendStyle smoothed="false"/>
        </y:PolyLineEdge>
      </data>
    </edge>
    <edge id="n0::e1" source="n0::n3" target="n0::n0">
      <data key="d10">
        <y:PolyLineEdge>
          <y:Path sx="0.0" sy="0.0" tx="-48.044789062500286" ty="-18.0"/>
          <y:LineStyle color="#000000" type="line" width="1.0"/>
          <y:Arrows source="none" target="standard"/>
          <y:BendStyle smoothed="false"/>
        </y:PolyLineEdge>
      </data>
    </edge>
    <edge id="n0::e2" source="n0::n4" target="n0::n2">
      <data key="d10">
        <y:PolyLineEdge>
          <y:Path sx="0.0" sy="0.0" tx="0.0" ty="0.0"/>
          <y:LineStyle color="#000000" type="line" width="1.0"/>
          <y:Arrows source="standard" target="standard"/>
          <y:BendStyle smoothed="false"/>
        </y:PolyLineEdge>
      </data>
    </edge>
    <edge id="n0::e3" source="n0::n4" target="n0::n0">
      <data key="d10">
        <y:PolyLineEdge>
          <y:Path sx="0.0" sy="0.0" tx="0.0" ty="0.0"/>
          <y:LineStyle color="#000000" type="line" width="1.0"/>
          <y:Arrows source="none" target="standard"/>
          <y:BendStyle smoothed="false"/>
        </y:PolyLineEdge>
      </data>
    </edge>
    <edge id="n0::e4" source="n0::n1" target="n0::n4">
      <data key="d10">
        <y:PolyLineEdge>
          <y:Path sx="0.0" sy="0.0" tx="0.0" ty="0.0"/>
          <y:LineStyle color="#000000" type="line" width="1.0"/>
          <y:Arrows source="none" target="standard"/>
          <y:BendStyle smoothed="false"/>
        </y:PolyLineEdge>
      </data>
    </edge>
    <edge id="e0" source="n0::n0" target="n1">
      <data key="d10">
        <y:PolyLineEdge>
          <y:Path sx="0.0" sy="0.0" tx="0.0" ty="0.0"/>
          <y:LineStyle color="#000000" type="line" width="1.0"/>
          <y:Arrows source="none" target="standard"/>
          <y:BendStyle smoothed="false"/>
        </y:PolyLineEdge>
      </data>
    </edge>
    <edge id="e1" source="n2" target="n0::n1">
      <data key="d10">
        <y:PolyLineEdge>
          <y:Path sx="0.0" sy="0.0" tx="0.0" ty="0.0"/>
          <y:LineStyle color="#000000" type="line" width="1.0"/>
          <y:Arrows source="none" target="standard"/>
          <y:BendStyle smoothed="false"/>
        </y:PolyLineEdge>
      </data>
    </edge>
    <edge id="e2" source="n3" target="n0::n0">
      <data key="d10">
        <y:PolyLineEdge>
          <y:Path sx="0.0" sy="0.0" tx="4.04521093749986" ty="8.879999999999995"/>
          <y:LineStyle color="#000000" type="line" width="1.0"/>
          <y:Arrows source="none" target="standard"/>
          <y:BendStyle smoothed="false"/>
        </y:PolyLineEdge>
      </data>
    </edge>
    <edge id="n4::e0" source="n4::n3" target="n4::n1::n1">
      <data key="d10">
        <y:PolyLineEdge>
          <y:Path sx="0.0" sy="0.0" tx="0.0" ty="0.0"/>
          <y:LineStyle color="#000000" type="line" width="1.0"/>
          <y:Arrows source="none" target="standard"/>
          <y:BendStyle smoothed="false"/>
        </y:PolyLineEdge>
      </data>
    </edge>
    <edge id="n4::e1" source="n4::n0::n0" target="n4::n3">
      <data key="d9"/>
      <data key="d10">
        <y:PolyLineEdge>
          <y:Path sx="0.0" sy="0.0" tx="0.0" ty="0.0"/>
          <y:LineStyle color="#000000" type="line" width="1.0"/>
          <y:Arrows source="none" target="standard"/>
          <y:BendStyle smoothed="false"/>
        </y:PolyLineEdge>
      </data>
    </edge>
    <edge id="n4::e2" source="n4::n1::n0" target="n4::n2">
      <data key="d10">
        <y:PolyLineEdge>
          <y:Path sx="0.0" sy="24.5" tx="0.0" ty="-6.5">
            <y:Point x="1621.5874414632449" y="635.4482324218749"/>
            <y:Point x="1540.9978320882444" y="635.4482324218749"/>
          </y:Path>
          <y:LineStyle color="#000000" type="line" width="1.0"/>
          <y:Arrows source="none" target="standard"/>
          <y:EdgeLabel alignment="center" configuration="AutoFlippingLabel" distance="2.0" fontFamily="Dialog" fontSize="12" fontStyle="plain" hasBackgroundColor="false" hasLineColor="false" height="18.701171875" horizontalTextPosition="center" iconTextGap="4" modelName="custom" preferredPlacement="anywhere" ratio="0.5" textColor="#000000" verticalTextPosition="bottom" visible="true" width="40.017578125" x="-80.30355463050546" xml:space="preserve" y="0.3184793526794465">m2sdp<y:LabelModel><y:SmartEdgeLabelModel autoRotationEnabled="false" defaultAngle="0.0" defaultDistance="10.0"/></y:LabelModel><y:ModelParameter><y:SmartEdgeLabelModelParameter angle="6.283185307179586" distance="0.9803390066954601" distanceToCenter="false" position="right" ratio="0.7481709510085338" segment="1"/></y:ModelParameter><y:PreferredPlacementDescriptor angle="0.0" angleOffsetOnRightSide="0" angleReference="absolute" angleRotationOnRightSide="co" distance="-1.0" frozen="true" placement="anywhere" side="anywhere" sideReference="relative_to_edge_flow"/></y:EdgeLabel>
          <y:BendStyle smoothed="false"/>
        </y:PolyLineEdge>
      </data>
    </edge>
    <edge id="n4::n1::e0" source="n4::n1::n1" target="n4::n1::n3">
      <data key="d10">
        <y:PolyLineEdge>
          <y:Path sx="0.0" sy="0.0" tx="0.0" ty="0.0"/>
          <y:LineStyle color="#000000" type="line" width="1.0"/>
          <y:Arrows source="none" target="standard"/>
          <y:BendStyle smoothed="false"/>
        </y:PolyLineEdge>
      </data>
    </edge>
    <edge id="n4::n1::e1" source="n4::n1::n1" target="n4::n1::n4">
      <data key="d10">
        <y:PolyLineEdge>
          <y:Path sx="0.0" sy="0.0" tx="0.0" ty="0.0"/>
          <y:LineStyle color="#000000" type="line" width="1.0"/>
          <y:Arrows source="none" target="standard"/>
          <y:BendStyle smoothed="false"/>
        </y:PolyLineEdge>
      </data>
    </edge>
    <edge id="n4::n1::e2" source="n4::n1::n3" target="n4::n1::n0">
      <data key="d10">
        <y:PolyLineEdge>
          <y:Path sx="0.0" sy="0.0" tx="-48.044789062500286" ty="-18.0"/>
          <y:LineStyle color="#000000" type="line" width="1.0"/>
          <y:Arrows source="none" target="standard"/>
          <y:EdgeLabel alignment="center" configuration="AutoFlippingLabel" distance="2.0" fontFamily="Dialog" fontSize="12" fontStyle="plain" hasBackgroundColor="false" hasLineColor="false" height="18.701171875" horizontalTextPosition="center" iconTextGap="4" modelName="free" modelPosition="anywhere" preferredPlacement="anywhere" ratio="0.5" textColor="#000000" verticalTextPosition="bottom" visible="true" width="66.70703125" x="-29.9134521484375" xml:space="preserve" y="6.5261718750000455">1/50 m2sdp<y:PreferredPlacementDescriptor angle="0.0" angleOffsetOnRightSide="0" angleReference="absolute" angleRotationOnRightSide="co" distance="-1.0" frozen="true" placement="anywhere" side="anywhere" sideReference="relative_to_edge_flow"/></y:EdgeLabel>
          <y:BendStyle smoothed="false"/>
        </y:PolyLineEdge>
      </data>
    </edge>
    <edge id="n4::n1::e3" source="n4::n1::n4" target="n4::n1::n2">
      <data key="d10">
        <y:PolyLineEdge>
          <y:Path sx="0.0" sy="0.0" tx="0.0" ty="0.0"/>
          <y:LineStyle color="#000000" type="line" width="1.0"/>
          <y:Arrows source="standard" target="standard"/>
          <y:BendStyle smoothed="false"/>
        </y:PolyLineEdge>
      </data>
    </edge>
    <edge id="n4::n1::e4" source="n4::n1::n4" target="n4::n1::n0">
      <data key="d10">
        <y:PolyLineEdge>
          <y:Path sx="0.0" sy="0.0" tx="0.0" ty="0.0"/>
          <y:LineStyle color="#000000" type="line" width="1.0"/>
          <y:Arrows source="none" target="standard"/>
          <y:BendStyle smoothed="false"/>
        </y:PolyLineEdge>
      </data>
    </edge>
    <edge id="n4::e3" source="n4::n7::n0" target="n4::n4">
      <data key="d9"/>
      <data key="d10">
        <y:PolyLineEdge>
          <y:Path sx="0.0" sy="0.0" tx="0.0" ty="0.0"/>
          <y:LineStyle color="#000000" type="line" width="1.0"/>
          <y:Arrows source="none" target="standard"/>
          <y:BendStyle smoothed="false"/>
        </y:PolyLineEdge>
      </data>
    </edge>
    <edge id="n4::e4" source="n4::n7::n0" target="n4::n7">
      <data key="d9"/>
      <data key="d10">
        <y:PolyLineEdge>
          <y:Path sx="-1.0" sy="-5.5941162109375" tx="0.0" ty="0.0"/>
          <y:LineStyle color="#000000" type="line" width="1.0"/>
          <y:Arrows source="none" target="standard"/>
          <y:BendStyle smoothed="false"/>
        </y:PolyLineEdge>
      </data>
    </edge>
    <edge id="n4::e5" source="n4::n8::n0" target="n4::n6">
      <data key="d9"/>
      <data key="d10">
        <y:PolyLineEdge>
          <y:Path sx="0.0" sy="-6.819859038586969" tx="0.0" ty="0.0"/>
          <y:LineStyle color="#000000" type="line" width="1.0"/>
          <y:Arrows source="none" target="standard"/>
          <y:BendStyle smoothed="false"/>
        </y:PolyLineEdge>
      </data>
    </edge>
    <edge id="n4::e6" source="n4::n9::n0" target="n4::n5">
      <data key="d9"/>
      <data key="d10">
        <y:PolyLineEdge>
          <y:Path sx="0.0" sy="0.0" tx="0.0" ty="0.0"/>
          <y:LineStyle color="#000000" type="line" width="1.0"/>
          <y:Arrows source="none" target="standard"/>
          <y:BendStyle smoothed="false"/>
        </y:PolyLineEdge>
      </data>
    </edge>
    <edge id="e3" source="n5::n0" target="n4::n7::n0">
      <data key="d9"/>
      <data key="d10">
        <y:PolyLineEdge>
          <y:Path sx="0.0" sy="0.0" tx="0.0" ty="0.0">
            <y:Point x="1137.3577051066222" y="636.5927092442612"/>
          </y:Path>
          <y:LineStyle color="#000000" type="line" width="1.0"/>
          <y:Arrows source="none" target="standard"/>
          <y:EdgeLabel alignment="center" configuration="AutoFlippingLabel" distance="2.0" fontFamily="Dialog" fontSize="12" fontStyle="plain" hasBackgroundColor="false" hasLineColor="false" height="18.701171875" horizontalTextPosition="center" iconTextGap="4" modelName="free" modelPosition="anywhere" preferredPlacement="anywhere" ratio="0.5" textColor="#000000" verticalTextPosition="bottom" visible="true" width="80.0078125" x="14.638427734375" xml:space="preserve" y="115.76975795200894">f(kgCO2/kWh)<y:PreferredPlacementDescriptor angle="0.0" angleOffsetOnRightSide="0" angleReference="absolute" angleRotationOnRightSide="co" distance="-1.0" frozen="true" placement="anywhere" side="anywhere" sideReference="relative_to_edge_flow"/></y:EdgeLabel>
          <y:BendStyle smoothed="false"/>
        </y:PolyLineEdge>
      </data>
    </edge>
    <edge id="e4" source="n5::n0" target="n4::n8::n0">
      <data key="d9"/>
      <data key="d10">
        <y:PolyLineEdge>
          <y:Path sx="0.0" sy="0.0" tx="0.0" ty="0.0">
            <y:Point x="1137.3577051066222" y="736.6703459630112"/>
          </y:Path>
          <y:LineStyle color="#000000" type="line" width="1.0"/>
          <y:Arrows source="none" target="standard"/>
          <y:EdgeLabel alignment="center" configuration="AutoFlippingLabel" distance="2.0" fontFamily="Dialog" fontSize="12" fontStyle="plain" hasBackgroundColor="false" hasLineColor="false" height="18.701171875" horizontalTextPosition="center" iconTextGap="4" modelName="free" modelPosition="anywhere" preferredPlacement="anywhere" ratio="0.5" textColor="#000000" verticalTextPosition="bottom" visible="true" width="80.0078125" x="14.638427734375" xml:space="preserve" y="216.76975795200894">f(kgCO2/kWh)<y:PreferredPlacementDescriptor angle="0.0" angleOffsetOnRightSide="0" angleReference="absolute" angleRotationOnRightSide="co" distance="-1.0" frozen="true" placement="anywhere" side="anywhere" sideReference="relative_to_edge_flow"/></y:EdgeLabel>
          <y:BendStyle smoothed="false"/>
        </y:PolyLineEdge>
      </data>
    </edge>
    <edge id="e5" source="n5::n0" target="n4::n9::n0">
      <data key="d9"/>
      <data key="d10">
        <y:PolyLineEdge>
          <y:Path sx="0.0" sy="0.0" tx="0.0" ty="0.0">
            <y:Point x="1137.3577051066222" y="836.7479826817612"/>
          </y:Path>
          <y:LineStyle color="#000000" type="line" width="1.0"/>
          <y:Arrows source="none" target="standard"/>
          <y:EdgeLabel alignment="center" configuration="AutoFlippingLabel" distance="2.0" fontFamily="Dialog" fontSize="12" fontStyle="plain" hasBackgroundColor="false" hasLineColor="false" height="18.701171875" horizontalTextPosition="center" iconTextGap="4" modelName="free" modelPosition="anywhere" preferredPlacement="anywhere" ratio="0.5" textColor="#000000" verticalTextPosition="bottom" visible="true" width="80.0078125" x="9.638427734375" xml:space="preserve" y="315.76975795200894">f(kgCO2/kWh)<y:PreferredPlacementDescriptor angle="0.0" angleOffsetOnRightSide="0" angleReference="absolute" angleRotationOnRightSide="co" distance="-1.0" frozen="true" placement="anywhere" side="anywhere" sideReference="relative_to_edge_flow"/></y:EdgeLabel>
          <y:BendStyle smoothed="false"/>
        </y:PolyLineEdge>
      </data>
    </edge>
    <edge id="e6" source="n4::n7::n0" target="n4">
      <data key="d9"/>
      <data key="d10">
        <y:PolyLineEdge>
          <y:Path sx="0.0" sy="9.43580778539399" tx="-115.18301512959442" ty="2.8321721731495018"/>
          <y:LineStyle color="#000000" type="line" width="1.0"/>
          <y:Arrows source="none" target="standard"/>
          <y:BendStyle smoothed="false"/>
        </y:PolyLineEdge>
      </data>
    </edge>
    <edge id="e7" source="n5::n0" target="n4::n0::n0">
      <data key="d9"/>
      <data key="d10">
        <y:PolyLineEdge>
          <y:Path sx="0.0" sy="6.5" tx="0.0" ty="6.5"/>
          <y:LineStyle color="#000000" type="line" width="1.0"/>
          <y:Arrows source="none" target="standard"/>
          <y:EdgeLabel alignment="left" configuration="AutoFlippingLabel" distance="3.0" fontFamily="Dialog" fontSize="12" fontStyle="plain" hasBackgroundColor="false" hasLineColor="false" height="18.701171875" horizontalTextPosition="center" iconTextGap="4" modelName="free" modelPosition="anywhere" preferredPlacement="anywhere" ratio="0.5" textColor="#000000" verticalTextPosition="bottom" visible="true" width="92.025390625" x="7.629638671875" xml:space="preserve" y="4.269757952008945">f(kgCO2/m2sdp)<y:PreferredPlacementDescriptor angle="0.0" angleOffsetOnRightSide="0" angleReference="absolute" angleRotationOnRightSide="co" distance="-1.0" placement="anywhere" side="anywhere" sideReference="relative_to_edge_flow"/></y:EdgeLabel>
          <y:BendStyle smoothed="false"/>
        </y:PolyLineEdge>
      </data>
    </edge>
    <edge id="n4::e7" source="n4::n10::n0" target="n4::n11">
      <data key="d9"/>
      <data key="d10">
        <y:PolyLineEdge>
          <y:Path sx="0.0" sy="0.0" tx="0.0" ty="0.0"/>
          <y:LineStyle color="#000000" type="line" width="1.0"/>
          <y:Arrows source="none" target="standard"/>
          <y:EdgeLabel alignment="center" configuration="AutoFlippingLabel" distance="2.0" fontFamily="Dialog" fontSize="12" fontStyle="plain" hasBackgroundColor="false" hasLineColor="false" hasText="false" height="4.0" horizontalTextPosition="center" iconTextGap="4" modelName="custom" preferredPlacement="anywhere" ratio="0.5" textColor="#000000" verticalTextPosition="bottom" visible="true" width="4.0" x="32.065864329055785" y="27.999972795758822">
            <y:LabelModel>
              <y:SmartEdgeLabelModel autoRotationEnabled="false" defaultAngle="0.0" defaultDistance="10.0"/>
            </y:LabelModel>
            <y:ModelParameter>
              <y:SmartEdgeLabelModelParameter angle="0.0" distance="30.0" distanceToCenter="true" position="right" ratio="0.5" segment="0"/>
            </y:ModelParameter>
            <y:PreferredPlacementDescriptor angle="0.0" angleOffsetOnRightSide="0" angleReference="absolute" angleRotationOnRightSide="co" distance="-1.0" frozen="true" placement="anywhere" side="anywhere" sideReference="relative_to_edge_flow"/>
          </y:EdgeLabel>
          <y:BendStyle smoothed="false"/>
        </y:PolyLineEdge>
      </data>
    </edge>
    <edge id="n4::e8" source="n4::n2" target="n4::n10::n0">
      <data key="d9"/>
      <data key="d10">
        <y:PolyLineEdge>
          <y:Path sx="0.0" sy="0.0" tx="-24.666025476117284" ty="-15.208232421874982">
            <y:Point x="1540.9978320882444" y="724.0764285714286"/>
            <y:Point x="1540.8" y="724.0764285714286"/>
          </y:Path>
          <y:LineStyle color="#000000" type="line" width="1.0"/>
          <y:Arrows source="none" target="standard"/>
          <y:EdgeLabel alignment="center" configuration="AutoFlippingLabel" distance="2.0" fontFamily="Dialog" fontSize="12" fontStyle="plain" hasBackgroundColor="false" hasLineColor="false" height="18.701171875" horizontalTextPosition="center" iconTextGap="4" modelName="free" modelPosition="anywhere" preferredPlacement="anywhere" ratio="0.5" textColor="#000000" verticalTextPosition="bottom" visible="true" width="60.021484375" x="1.1914550781250455" xml:space="preserve" y="1.4901000976562955">m2/m2sdp<y:PreferredPlacementDescriptor angle="0.0" angleOffsetOnRightSide="0" angleReference="absolute" angleRotationOnRightSide="co" distance="-1.0" frozen="true" placement="anywhere" side="anywhere" sideReference="relative_to_edge_flow"/></y:EdgeLabel>
          <y:BendStyle smoothed="false"/>
        </y:PolyLineEdge>
      </data>
    </edge>
    <edge id="n4::e9" source="n4::n5" target="n4::n10::n0">
      <data key="d9"/>
      <data key="d10">
        <y:PolyLineEdge>
          <y:Path sx="0.0" sy="0.0" tx="-27.199999999999818" ty="0.0">
            <y:Point x="1538.2660254761174" y="836.7479826817612"/>
          </y:Path>
          <y:LineStyle color="#000000" type="line" width="1.0"/>
          <y:Arrows source="none" target="standard"/>
          <y:EdgeLabel alignment="center" configuration="AutoFlippingLabel" distance="2.0" fontFamily="Dialog" fontSize="12" fontStyle="plain" hasBackgroundColor="false" hasLineColor="false" height="18.701171875" horizontalTextPosition="center" iconTextGap="4" modelName="custom" preferredPlacement="anywhere" ratio="0.5" textColor="#000000" verticalTextPosition="bottom" visible="true" width="48.00390625" x="56.663012695312545" xml:space="preserve" y="-0.9229858398441593">kWh/m2<y:LabelModel><y:SmartEdgeLabelModel autoRotationEnabled="false" defaultAngle="0.0" defaultDistance="10.0"/></y:LabelModel><y:ModelParameter><y:SmartEdgeLabelModelParameter angle="6.283185307179586" distance="8.427603255738397" distanceToCenter="true" position="right" ratio="0.45031249151948527" segment="0"/></y:ModelParameter><y:PreferredPlacementDescriptor angle="0.0" angleOffsetOnRightSide="0" angleReference="absolute" angleRotationOnRightSide="co" distance="-1.0" frozen="true" placement="anywhere" side="anywhere" sideReference="relative_to_edge_flow"/></y:EdgeLabel>
          <y:BendStyle smoothed="false"/>
        </y:PolyLineEdge>
      </data>
    </edge>
    <edge id="n4::e10" source="n4::n6" target="n4::n10::n0">
      <data key="d9"/>
      <data key="d10">
        <y:PolyLineEdge>
          <y:Path sx="0.0" sy="0.0" tx="0.0" ty="15.200000000000045">
            <y:Point x="1413.0921899912769" y="729.8504869244242"/>
            <y:Point x="1413.0921899912769" y="800.0768038504464"/>
          </y:Path>
          <y:LineStyle color="#000000" type="line" width="1.0"/>
          <y:Arrows source="none" target="standard"/>
          <y:EdgeLabel alignment="center" configuration="AutoFlippingLabel" distance="2.0" fontFamily="Dialog" fontSize="12" fontStyle="plain" hasBackgroundColor="false" hasLineColor="false" height="18.701171875" horizontalTextPosition="center" iconTextGap="4" modelName="custom" preferredPlacement="anywhere" ratio="0.5" textColor="#000000" verticalTextPosition="bottom" visible="true" width="48.00390625" x="45.663012695312545" xml:space="preserve" y="69.97453613281255">kWh/m2<y:LabelModel><y:SmartEdgeLabelModel autoRotationEnabled="false" defaultAngle="0.0" defaultDistance="10.0"/></y:LabelModel><y:ModelParameter><y:SmartEdgeLabelModelParameter angle="6.283185307179586" distance="9.098782087053689" distanceToCenter="true" position="right" ratio="0.6781011901721519" segment="-1"/></y:ModelParameter><y:PreferredPlacementDescriptor angle="0.0" angleOffsetOnRightSide="0" angleReference="absolute" angleRotationOnRightSide="co" distance="-1.0" frozen="true" placement="anywhere" side="anywhere" sideReference="relative_to_edge_flow"/></y:EdgeLabel>
          <y:BendStyle smoothed="false"/>
        </y:PolyLineEdge>
      </data>
    </edge>
    <edge id="n4::e11" source="n4::n4" target="n4::n10::n0">
      <data key="d9"/>
      <data key="d10">
        <y:PolyLineEdge>
          <y:Path sx="0.0" sy="0.0" tx="-45.46602547611724" ty="-15.208232421874982">
            <y:Point x="1442.292189991277" y="636.5927092442612"/>
            <y:Point x="1442.292189991277" y="769.6685714285713"/>
          </y:Path>
          <y:LineStyle color="#000000" type="line" width="1.0"/>
          <y:Arrows source="none" target="standard"/>
          <y:EdgeLabel alignment="center" configuration="AutoFlippingLabel" distance="2.0" fontFamily="Dialog" fontSize="12" fontStyle="plain" hasBackgroundColor="false" hasLineColor="false" height="18.701171875" horizontalTextPosition="center" iconTextGap="4" modelName="custom" preferredPlacement="anywhere" ratio="0.5" textColor="#000000" verticalTextPosition="bottom" visible="true" width="48.00390625" x="45.663012695310954" xml:space="preserve" y="38.232287597656295">kWh/m2<y:LabelModel><y:SmartEdgeLabelModel autoRotationEnabled="false" defaultAngle="0.0" defaultDistance="10.0"/></y:LabelModel><y:ModelParameter><y:SmartEdgeLabelModelParameter angle="6.283185307179586" distance="21.90976313372175" distanceToCenter="true" position="left" ratio="0.35756203951800475" segment="1"/></y:ModelParameter><y:PreferredPlacementDescriptor angle="0.0" angleOffsetOnRightSide="0" angleReference="absolute" angleRotationOnRightSide="co" distance="-1.0" frozen="true" placement="anywhere" side="anywhere" sideReference="relative_to_edge_flow"/></y:EdgeLabel>
          <y:BendStyle smoothed="false"/>
        </y:PolyLineEdge>
      </data>
    </edge>
  </graph>
  <data key="d7">
    <y:Resources/>
  </data>
</graphml>
