<?xml version="1.0" encoding="UTF-8" standalone="no"?>
<graphml xmlns="http://graphml.graphdrawing.org/xmlns" xmlns:java="http://www.yworks.com/xml/yfiles-common/1.0/java" xmlns:sys="http://www.yworks.com/xml/yfiles-common/markup/primitives/2.0" xmlns:x="http://www.yworks.com/xml/yfiles-common/markup/2.0" xmlns:xsi="http://www.w3.org/2001/XMLSchema-instance" xmlns:y="http://www.yworks.com/xml/graphml" xmlns:yed="http://www.yworks.com/xml/yed/3" xsi:schemaLocation="http://graphml.graphdrawing.org/xmlns http://www.yworks.com/xml/schema/graphml/1.1/ygraphml.xsd">
  <!--Created by yEd 3.19-->
  <key attr.name="Description" attr.type="string" for="graph" id="d0"/>
  <key for="port" id="d1" yfiles.type="portgraphics"/>
  <key for="port" id="d2" yfiles.type="portgeometry"/>
  <key for="port" id="d3" yfiles.type="portuserdata"/>
  <key attr.name="url" attr.type="string" for="node" id="d4"/>
  <key attr.name="description" attr.type="string" for="node" id="d5"/>
  <key for="node" id="d6" yfiles.type="nodegraphics"/>
  <key for="graphml" id="d7" yfiles.type="resources"/>
  <key attr.name="url" attr.type="string" for="edge" id="d8"/>
  <key attr.name="description" attr.type="string" for="edge" id="d9"/>
  <key for="edge" id="d10" yfiles.type="edgegraphics"/>
  <graph edgedefault="directed" id="G">
    <data key="d0" xml:space="preserve"/>
    <node id="n0" yfiles.foldertype="group">
      <data key="d4" xml:space="preserve"/>
      <data key="d6">
        <y:ProxyAutoBoundsNode>
          <y:Realizers active="0">
            <y:GroupNode>
              <y:Geometry height="199.97646484375014" width="323.8496093749993" x="529.9007812500003" y="393.10353515625"/>
              <y:Fill color="#F5F5F5" transparent="false"/>
              <y:BorderStyle color="#C0C0C0" type="dashed" width="1.0"/>
              <y:NodeLabel alignment="right" autoSizePolicy="node_width" backgroundColor="#EBEBEB" borderDistance="0.0" fontFamily="Dialog" fontSize="15" fontStyle="plain" hasLineColor="false" height="22.37646484375" horizontalTextPosition="center" iconTextGap="4" modelName="internal" modelPosition="t" textColor="#000000" verticalTextPosition="bottom" visible="true" width="323.8496093749993" x="0.0" xml:space="preserve" y="0.0">Building</y:NodeLabel>
              <y:Shape type="roundrectangle"/>
              <y:State closed="false" closedHeight="50.0" closedWidth="50.0" innerGraphDisplayEnabled="false"/>
              <y:Insets bottom="15" bottomF="15.0" left="15" leftF="15.0" right="15" rightF="15.0" top="15" topF="15.0"/>
              <y:BorderInsets bottom="12" bottomF="11.560000000000173" left="0" leftF="0.0" right="18" rightF="18.27039062499921" top="11" topF="11.149023437500091"/>
            </y:GroupNode>
            <y:GroupNode>
              <y:Geometry height="50.0" width="50.0" x="563.0" y="370.62353515625"/>
              <y:Fill color="#F5F5F5" transparent="false"/>
              <y:BorderStyle color="#000000" type="dashed" width="1.0"/>
              <y:NodeLabel alignment="right" autoSizePolicy="node_width" backgroundColor="#EBEBEB" borderDistance="0.0" fontFamily="Dialog" fontSize="15" fontStyle="plain" hasLineColor="false" height="22.37646484375" horizontalTextPosition="center" iconTextGap="4" modelName="internal" modelPosition="t" textColor="#000000" verticalTextPosition="bottom" visible="true" width="59.02685546875" x="-4.513427734375" xml:space="preserve" y="0.0">Folder 1</y:NodeLabel>
              <y:Shape type="roundrectangle"/>
              <y:State closed="true" closedHeight="50.0" closedWidth="50.0" innerGraphDisplayEnabled="false"/>
              <y:Insets bottom="5" bottomF="5.0" left="5" leftF="5.0" right="5" rightF="5.0" top="5" topF="5.0"/>
              <y:BorderInsets bottom="0" bottomF="0.0" left="0" leftF="0.0" right="0" rightF="0.0" top="0" topF="0.0"/>
            </y:GroupNode>
          </y:Realizers>
        </y:ProxyAutoBoundsNode>
      </data>
      <graph edgedefault="directed" id="n0:">
        <node id="n0::n0">
          <data key="d6">
            <y:ShapeNode>
              <y:Geometry height="49.0" width="96.0" x="669.7400000000004" y="517.52"/>
              <y:Fill color="#99CCFF" transparent="false"/>
              <y:BorderStyle color="#000000" raised="false" type="line" width="1.0"/>
              <y:NodeLabel alignment="center" autoSizePolicy="content" fontFamily="Dialog" fontSize="12" fontStyle="plain" hasBackgroundColor="false" hasLineColor="false" height="18.701171875" horizontalTextPosition="center" iconTextGap="4" modelName="custom" textColor="#000000" verticalTextPosition="bottom" visible="true" width="47.34765625" x="24.326171875" xml:space="preserve" y="15.1494140625">Process<y:LabelModel><y:SmartNodeLabelModel distance="4.0"/></y:LabelModel><y:ModelParameter><y:SmartNodeLabelModelParameter labelRatioX="0.0" labelRatioY="0.0" nodeRatioX="0.0" nodeRatioY="0.0" offsetX="0.0" offsetY="0.0" upX="0.0" upY="-1.0"/></y:ModelParameter></y:NodeLabel>
              <y:Shape type="rectangle"/>
            </y:ShapeNode>
          </data>
        </node>
        <node id="n0::n1">
          <data key="d6">
            <y:ShapeNode>
              <y:Geometry height="49.0" width="96.0" x="578.0000000000003" y="443.8800000000001"/>
              <y:Fill color="#C0C0C0" transparent="false"/>
              <y:BorderStyle color="#000000" raised="false" type="line" width="1.0"/>
              <y:NodeLabel alignment="center" autoSizePolicy="content" fontFamily="Dialog" fontSize="12" fontStyle="plain" hasBackgroundColor="false" hasLineColor="false" height="18.701171875" horizontalTextPosition="center" iconTextGap="4" modelName="custom" textColor="#000000" verticalTextPosition="bottom" visible="true" width="77.359375" x="9.3203125" xml:space="preserve" y="15.1494140625">StockProcess<y:LabelModel><y:SmartNodeLabelModel distance="4.0"/></y:LabelModel><y:ModelParameter><y:SmartNodeLabelModelParameter labelRatioX="0.0" labelRatioY="0.0" nodeRatioX="0.0" nodeRatioY="0.0" offsetX="0.0" offsetY="0.0" upX="0.0" upY="-1.0"/></y:ModelParameter></y:NodeLabel>
              <y:Shape type="rectangle"/>
            </y:ShapeNode>
          </data>
        </node>
        <node id="n0::n2">
          <data key="d6">
            <y:ShapeNode>
              <y:Geometry height="49.0" width="59.0" x="761.4800000000004" y="443.8800000000001"/>
              <y:Fill color="#C0C0C0" transparent="false"/>
              <y:BorderStyle color="#000000" raised="false" type="line" width="1.0"/>
              <y:NodeLabel alignment="center" autoSizePolicy="content" fontFamily="Dialog" fontSize="12" fontStyle="plain" hasBackgroundColor="false" hasLineColor="false" height="18.701171875" horizontalTextPosition="center" iconTextGap="4" modelName="custom" textColor="#000000" verticalTextPosition="bottom" visible="true" width="46.029296875" x="6.4853515625" xml:space="preserve" y="15.1494140625">Storage<y:LabelModel><y:SmartNodeLabelModel distance="4.0"/></y:LabelModel><y:ModelParameter><y:SmartNodeLabelModelParameter labelRatioX="0.0" labelRatioY="0.0" nodeRatioX="0.0" nodeRatioY="0.0" offsetX="0.0" offsetY="0.0" upX="0.0" upY="-1.0"/></y:ModelParameter></y:NodeLabel>
              <y:Shape type="rectangle"/>
            </y:ShapeNode>
          </data>
        </node>
        <node id="n0::n3">
          <data key="d6">
            <y:ShapeNode>
              <y:Geometry height="13.0" width="12.800000000000068" x="619.6000000000003" y="517.52"/>
              <y:Fill color="#99CC00" transparent="false"/>
              <y:BorderStyle color="#000000" raised="false" type="line" width="1.0"/>
              <y:NodeLabel alignment="center" autoSizePolicy="content" fontFamily="Dialog" fontSize="10" fontStyle="plain" hasBackgroundColor="false" hasLineColor="false" height="16.2509765625" horizontalTextPosition="center" iconTextGap="4" modelName="sides" modelPosition="w" textColor="#000000" verticalTextPosition="bottom" visible="true" width="70.69921875" x="-74.69921875" xml:space="preserve" y="-1.62548828125">market_charge</y:NodeLabel>
              <y:Shape type="rectangle"/>
            </y:ShapeNode>
          </data>
        </node>
        <node id="n0::n4">
          <data key="d6">
            <y:ShapeNode>
              <y:Geometry height="13.0" width="12.800000000000068" x="711.3400000000003" y="461.8800000000001"/>
              <y:Fill color="#99CC00" transparent="false"/>
              <y:BorderStyle color="#000000" raised="false" type="line" width="1.0"/>
              <y:NodeLabel alignment="center" autoSizePolicy="content" fontFamily="Dialog" fontSize="10" fontStyle="plain" hasBackgroundColor="false" hasLineColor="false" height="16.2509765625" horizontalTextPosition="center" iconTextGap="4" modelName="sides" modelPosition="n" textColor="#000000" verticalTextPosition="bottom" visible="true" width="83.482421875" x="-35.34121093750002" xml:space="preserve" y="-20.2509765625">market_discharge</y:NodeLabel>
              <y:Shape type="rectangle"/>
            </y:ShapeNode>
          </data>
        </node>
      </graph>
    </node>
    <node id="n1">
      <data key="d6">
        <y:ShapeNode>
          <y:Geometry height="13.0" width="12.800000000000068" x="899.1103906249996" y="535.52"/>
          <y:Fill color="#99CC00" transparent="false"/>
          <y:BorderStyle color="#000000" raised="false" type="line" width="1.0"/>
          <y:NodeLabel alignment="center" autoSizePolicy="content" fontFamily="Dialog" fontSize="10" fontStyle="plain" hasBackgroundColor="false" hasLineColor="false" height="16.2509765625" horizontalTextPosition="center" iconTextGap="4" modelName="sides" modelPosition="n" textColor="#000000" verticalTextPosition="bottom" visible="true" width="67.92578125" x="-27.56289062499991" xml:space="preserve" y="-20.2509765625">market_output</y:NodeLabel>
          <y:Shape type="rectangle"/>
        </y:ShapeNode>
      </data>
    </node>
    <node id="n2">
      <data key="d6">
        <y:ShapeNode>
          <y:Geometry height="13.0" width="12.800000000000068" x="471.660781249999" y="461.8800000000001"/>
          <y:Fill color="#99CC00" transparent="false"/>
          <y:BorderStyle color="#000000" raised="false" type="line" width="1.0"/>
          <y:NodeLabel alignment="center" autoSizePolicy="content" fontFamily="Dialog" fontSize="10" fontStyle="plain" hasBackgroundColor="false" hasLineColor="false" height="16.2509765625" horizontalTextPosition="center" iconTextGap="4" modelName="sides" modelPosition="n" textColor="#000000" verticalTextPosition="bottom" visible="true" width="61.8076171875" x="-24.503808593749966" xml:space="preserve" y="-20.2509765625">market_input</y:NodeLabel>
          <y:Shape type="rectangle"/>
        </y:ShapeNode>
      </data>
    </node>
    <node id="n3">
      <data key="d5"/>
      <data key="d6">
        <y:ShapeNode>
          <y:Geometry height="30.0" width="90.0" x="969.808" y="527.2400000000001"/>
          <y:Fill color="#FFCC00" transparent="false"/>
          <y:BorderStyle color="#000000" raised="false" type="line" width="1.0"/>
          <y:NodeLabel alignment="center" autoSizePolicy="content" fontFamily="Dialog" fontSize="12" fontStyle="plain" hasBackgroundColor="false" hasLineColor="false" height="18.701171875" horizontalTextPosition="center" iconTextGap="4" modelName="custom" textColor="#000000" verticalTextPosition="bottom" visible="true" width="61.375" x="14.3125" xml:space="preserve" y="5.6494140625">Household<y:LabelModel><y:SmartNodeLabelModel distance="4.0"/></y:LabelModel><y:ModelParameter><y:SmartNodeLabelModelParameter labelRatioX="0.0" labelRatioY="0.0" nodeRatioX="0.0" nodeRatioY="0.0" offsetX="0.0" offsetY="0.0" upX="0.0" upY="-1.0"/></y:ModelParameter></y:NodeLabel>
          <y:Shape type="rectangle"/>
        </y:ShapeNode>
      </data>
    </node>
    <node id="n4" yfiles.foldertype="group">
      <data key="d4" xml:space="preserve"/>
      <data key="d6">
        <y:ProxyAutoBoundsNode>
          <y:Realizers active="0">
            <y:GroupNode>
              <y:Geometry height="199.97646484375014" width="170.84960937499932" x="260.56156249999924" y="392.20707031250004"/>
              <y:Fill color="#F5F5F5" transparent="false"/>
              <y:BorderStyle color="#C0C0C0" type="dashed" width="1.0"/>
              <y:NodeLabel alignment="right" autoSizePolicy="node_width" backgroundColor="#EBEBEB" borderDistance="0.0" fontFamily="Dialog" fontSize="15" fontStyle="plain" hasLineColor="false" height="22.37646484375" horizontalTextPosition="center" iconTextGap="4" modelName="internal" modelPosition="t" textColor="#000000" verticalTextPosition="bottom" visible="true" width="170.84960937499932" x="0.0" xml:space="preserve" y="0.0">Construction</y:NodeLabel>
              <y:Shape type="roundrectangle"/>
              <y:State closed="false" closedHeight="50.0" closedWidth="50.0" innerGraphDisplayEnabled="false"/>
              <y:Insets bottom="15" bottomF="15.0" left="15" leftF="15.0" right="15" rightF="15.0" top="15" topF="15.0"/>
              <y:BorderInsets bottom="71" bottomF="70.56000000000017" left="116" leftF="115.8392187500001" right="82" rightF="82.01039062499922" top="28" topF="28.039999999999964"/>
            </y:GroupNode>
            <y:GroupNode>
              <y:Geometry height="50.0" width="50.0" x="563.0" y="370.62353515625"/>
              <y:Fill color="#F5F5F5" transparent="false"/>
              <y:BorderStyle color="#000000" type="dashed" width="1.0"/>
              <y:NodeLabel alignment="right" autoSizePolicy="node_width" backgroundColor="#EBEBEB" borderDistance="0.0" fontFamily="Dialog" fontSize="15" fontStyle="plain" hasLineColor="false" height="22.37646484375" horizontalTextPosition="center" iconTextGap="4" modelName="internal" modelPosition="t" textColor="#000000" verticalTextPosition="bottom" visible="true" width="59.02685546875" x="-4.513427734375" xml:space="preserve" y="0.0">Folder 1</y:NodeLabel>
              <y:Shape type="roundrectangle"/>
              <y:State closed="true" closedHeight="50.0" closedWidth="50.0" innerGraphDisplayEnabled="false"/>
              <y:Insets bottom="5" bottomF="5.0" left="5" leftF="5.0" right="5" rightF="5.0" top="5" topF="5.0"/>
              <y:BorderInsets bottom="0" bottomF="0.0" left="0" leftF="0.0" right="0" rightF="0.0" top="0" topF="0.0"/>
            </y:GroupNode>
          </y:Realizers>
        </y:ProxyAutoBoundsNode>
      </data>
      <graph edgedefault="directed" id="n4:"/>
    </node>
    <node id="n5">
      <data key="d6">
        <y:ShapeNode>
          <y:Geometry height="49.0" width="96.0" x="299.40078124999934" y="443.62353515625"/>
          <y:Fill color="#99CCFF" transparent="false"/>
          <y:BorderStyle color="#000000" raised="false" type="line" width="1.0"/>
          <y:NodeLabel alignment="center" autoSizePolicy="content" fontFamily="Dialog" fontSize="12" fontStyle="plain" hasBackgroundColor="false" hasLineColor="false" height="18.701171875" horizontalTextPosition="center" iconTextGap="4" modelName="custom" textColor="#000000" verticalTextPosition="bottom" visible="true" width="47.34765625" x="24.326171875" xml:space="preserve" y="15.1494140625">Process<y:LabelModel><y:SmartNodeLabelModel distance="4.0"/></y:LabelModel><y:ModelParameter><y:SmartNodeLabelModelParameter labelRatioX="0.0" labelRatioY="0.0" nodeRatioX="0.0" nodeRatioY="0.0" offsetX="0.0" offsetY="0.0" upX="0.0" upY="-1.0"/></y:ModelParameter></y:NodeLabel>
          <y:Shape type="rectangle"/>
        </y:ShapeNode>
      </data>
    </node>
    <node id="n6">
      <data key="d6">
        <y:ShapeNode>
          <y:Geometry height="13.0" width="12.800000000000068" x="159.881562499998" y="464.86353515625007"/>
          <y:Fill color="#99CC00" transparent="false"/>
          <y:BorderStyle color="#000000" raised="false" type="line" width="1.0"/>
          <y:NodeLabel alignment="center" autoSizePolicy="content" fontFamily="Dialog" fontSize="10" fontStyle="plain" hasBackgroundColor="false" hasLineColor="false" height="16.2509765625" horizontalTextPosition="center" iconTextGap="4" modelName="sides" modelPosition="n" textColor="#000000" verticalTextPosition="bottom" visible="true" width="24.5615234375" x="-5.880761718749966" xml:space="preserve" y="-20.2509765625">CO2</y:NodeLabel>
          <y:Shape type="rectangle"/>
        </y:ShapeNode>
      </data>
    </node>
    <edge id="n0::e0" source="n0::n1" target="n0::n3">
      <data key="d10">
        <y:PolyLineEdge>
          <y:Path sx="0.0" sy="0.0" tx="0.0" ty="0.0"/>
          <y:LineStyle color="#000000" type="line" width="1.0"/>
          <y:Arrows source="none" target="standard"/>
          <y:BendStyle smoothed="false"/>
        </y:PolyLineEdge>
      </data>
    </edge>
    <edge id="n0::e1" source="n0::n3" target="n0::n0">
      <data key="d10">
        <y:PolyLineEdge>
          <y:Path sx="0.0" sy="0.0" tx="-48.044789062500286" ty="-18.0"/>
          <y:LineStyle color="#000000" type="line" width="1.0"/>
          <y:Arrows source="none" target="standard"/>
          <y:EdgeLabel alignment="center" backgroundColor="#FFFFFF" configuration="AutoFlippingLabel" distance="2.0" fontFamily="Dialog" fontSize="10" fontStyle="plain" hasLineColor="false" height="16.2509765625" horizontalTextPosition="center" iconTextGap="4" modelName="custom" preferredPlacement="anywhere" ratio="0.5" textColor="#FF0000" verticalTextPosition="bottom" visible="true" width="24.0" x="4.999975585937818" xml:space="preserve" y="-8.125507812500018">1 m²<y:LabelModel><y:SmartEdgeLabelModel autoRotationEnabled="false" defaultAngle="0.0" defaultDistance="10.0"/></y:LabelModel><y:ModelParameter><y:SmartEdgeLabelModelParameter angle="0.0" distance="30.0" distanceToCenter="true" position="center" ratio="0.0" segment="0"/></y:ModelParameter><y:PreferredPlacementDescriptor angle="0.0" angleOffsetOnRightSide="0" angleReference="absolute" angleRotationOnRightSide="co" distance="-1.0" frozen="true" placement="anywhere" side="anywhere" sideReference="relative_to_edge_flow"/></y:EdgeLabel>
          <y:BendStyle smoothed="false"/>
        </y:PolyLineEdge>
      </data>
    </edge>
    <edge id="n0::e2" source="n0::n4" target="n0::n2">
      <data key="d10">
        <y:PolyLineEdge>
          <y:Path sx="0.0" sy="0.0" tx="0.0" ty="0.0"/>
          <y:LineStyle color="#000000" type="line" width="1.0"/>
          <y:Arrows source="standard" target="standard"/>
          <y:BendStyle smoothed="false"/>
        </y:PolyLineEdge>
      </data>
    </edge>
    <edge id="n0::e3" source="n0::n4" target="n0::n0">
      <data key="d10">
        <y:PolyLineEdge>
          <y:Path sx="0.0" sy="0.0" tx="0.0" ty="0.0"/>
          <y:LineStyle color="#000000" type="line" width="1.0"/>
          <y:Arrows source="none" target="standard"/>
          <y:EdgeLabel alignment="center" backgroundColor="#FFFFFF" configuration="AutoFlippingLabel" distance="2.0" fontFamily="Dialog" fontSize="10" fontStyle="plain" hasLineColor="false" height="16.2509765625" horizontalTextPosition="center" iconTextGap="4" modelName="custom" preferredPlacement="anywhere" ratio="0.5" textColor="#FF0000" verticalTextPosition="bottom" visible="true" width="37.9013671875" x="-18.950673828124764" xml:space="preserve" y="13.194506835937545">0.02 m²<y:LabelModel><y:SmartEdgeLabelModel autoRotationEnabled="false" defaultAngle="0.0" defaultDistance="10.0"/></y:LabelModel><y:ModelParameter><y:SmartEdgeLabelModelParameter angle="0.0" distance="30.0" distanceToCenter="true" position="center" ratio="0.5" segment="0"/></y:ModelParameter><y:PreferredPlacementDescriptor angle="0.0" angleOffsetOnRightSide="0" angleReference="absolute" angleRotationOnRightSide="co" distance="-1.0" frozen="true" placement="anywhere" side="anywhere" sideReference="relative_to_edge_flow"/></y:EdgeLabel>
          <y:BendStyle smoothed="false"/>
        </y:PolyLineEdge>
      </data>
    </edge>
    <edge id="n0::e4" source="n0::n1" target="n0::n4">
      <data key="d10">
        <y:PolyLineEdge>
          <y:Path sx="0.0" sy="0.0" tx="0.0" ty="0.0"/>
          <y:LineStyle color="#000000" type="line" width="1.0"/>
          <y:Arrows source="none" target="standard"/>
          <y:BendStyle smoothed="false"/>
        </y:PolyLineEdge>
      </data>
    </edge>
    <edge id="e0" source="n0::n0" target="n1">
      <data key="d10">
        <y:PolyLineEdge>
          <y:Path sx="0.0" sy="0.0" tx="0.0" ty="0.0"/>
          <y:LineStyle color="#000000" type="line" width="1.0"/>
          <y:Arrows source="none" target="standard"/>
          <y:EdgeLabel alignment="center" backgroundColor="#FFFFFF" configuration="AutoFlippingLabel" distance="2.0" fontFamily="Dialog" fontSize="10" fontStyle="plain" hasLineColor="false" height="16.2509765625" horizontalTextPosition="center" iconTextGap="4" modelName="custom" preferredPlacement="anywhere" ratio="0.5" textColor="#FF0000" verticalTextPosition="bottom" visible="true" width="24.0" x="54.68520507812491" xml:space="preserve" y="-8.125507812500018">1 m²<y:LabelModel><y:SmartEdgeLabelModel autoRotationEnabled="false" defaultAngle="0.0" defaultDistance="10.0"/></y:LabelModel><y:ModelParameter><y:SmartEdgeLabelModelParameter angle="0.0" distance="30.0" distanceToCenter="true" position="center" ratio="0.5" segment="0"/></y:ModelParameter><y:PreferredPlacementDescriptor angle="0.0" angleOffsetOnRightSide="0" angleReference="absolute" angleRotationOnRightSide="co" distance="-1.0" frozen="true" placement="anywhere" side="anywhere" sideReference="relative_to_edge_flow"/></y:EdgeLabel>
          <y:BendStyle smoothed="false"/>
        </y:PolyLineEdge>
      </data>
    </edge>
    <edge id="e1" source="n2" target="n0::n1">
      <data key="d10">
        <y:PolyLineEdge>
          <y:Path sx="0.0" sy="0.0" tx="0.0" ty="0.0"/>
          <y:LineStyle color="#000000" type="line" width="1.0"/>
          <y:Arrows source="none" target="standard"/>
          <y:BendStyle smoothed="false"/>
        </y:PolyLineEdge>
      </data>
    </edge>
    <edge id="e2" source="n1" target="n3">
      <data key="d9"/>
      <data key="d10">
        <y:PolyLineEdge>
          <y:Path sx="0.0" sy="0.0" tx="0.0" ty="0.0"/>
          <y:LineStyle color="#000000" type="line" width="1.0"/>
          <y:Arrows source="none" target="standard"/>
          <y:BendStyle smoothed="false"/>
        </y:PolyLineEdge>
      </data>
    </edge>
    <edge id="e3" source="n6" target="n5">
      <data key="d10">
        <y:PolyLineEdge>
          <y:Path sx="0.0" sy="0.0" tx="2.1992187500005684" ty="4.8799999999999955"/>
          <y:LineStyle color="#000000" type="line" width="1.0"/>
          <y:Arrows source="none" target="standard"/>
          <y:EdgeLabel alignment="center" backgroundColor="#FFFFFF" configuration="AutoFlippingLabel" distance="2.0" fontFamily="Dialog" fontSize="10" fontStyle="plain" hasLineColor="false" height="16.2509765625" horizontalTextPosition="center" iconTextGap="4" modelName="custom" preferredPlacement="anywhere" ratio="0.5" textColor="#FF0000" verticalTextPosition="bottom" visible="true" width="80.1474609375" x="23.285877075194037" xml:space="preserve" y="-7.558647370742392">1000 kgCO2e/m²<y:LabelModel><y:SmartEdgeLabelModel autoRotationEnabled="false" defaultAngle="0.0" defaultDistance="10.0"/></y:LabelModel><y:ModelParameter><y:SmartEdgeLabelModelParameter angle="0.0" distance="30.0" distanceToCenter="true" position="center" ratio="0.5" segment="0"/></y:ModelParameter><y:PreferredPlacementDescriptor angle="0.0" angleOffsetOnRightSide="0" angleReference="absolute" angleRotationOnRightSide="co" distance="-1.0" frozen="true" placement="anywhere" side="anywhere" sideReference="relative_to_edge_flow"/></y:EdgeLabel>
          <y:BendStyle smoothed="false"/>
        </y:PolyLineEdge>
      </data>
    </edge>
    <edge id="e4" source="n5" target="n2">
      <data key="d9"/>
      <data key="d10">
        <y:PolyLineEdge>
          <y:Path sx="0.0" sy="0.0" tx="0.0" ty="0.0"/>
          <y:LineStyle color="#000000" type="line" width="1.0"/>
          <y:Arrows source="none" target="standard"/>
          <y:BendStyle smoothed="false"/>
        </y:PolyLineEdge>
      </data>
    </edge>
  </graph>
  <data key="d7">
    <y:Resources/>
  </data>
</graphml>
